
Log Entry : 
01/08/2014 00:56:51
Error in: http://localhost:40053/Pronto500/Pedido/Edit/18262. Error Message:Me faltan parametros. Empleados_TX_PorSector esperaba 3 y se le pasaron 1
__________________________

Log Entry : 
01/08/2014 00:56:53
Error in: http://localhost:40053/Pronto500/Empleado/EmpleadosParaComboSectorCompras/. Error Message:Me faltan parametros. Empleados_TX_PorSector esperaba 3 y se le pasaron 1
__________________________

Log Entry : 
01/08/2014 00:57:26
Error in: http://localhost:40053/Pronto500/Pedido/Edit/18262. Error Message:Me faltan parametros. Empleados_TX_PorSector esperaba 3 y se le pasaron 1
__________________________

Log Entry : 
01/08/2014 00:57:29
Error in: http://localhost:40053/Pronto500/Empleado/EmpleadosParaComboSectorCompras/. Error Message:Me faltan parametros. Empleados_TX_PorSector esperaba 3 y se le pasaron 1
__________________________

Log Entry : 
01/08/2014 01:00:06
Error in: http://localhost:40053/Pronto500/Pedido/Edit/18262. Error Message:Me faltan parametros. Empleados_TX_PorSector esperaba 3 y se le pasaron 1
__________________________

Log Entry : 
01/08/2014 01:00:09
Error in: http://localhost:40053/Pronto500/Empleado/EmpleadosParaComboSectorCompras/. Error Message:Me faltan parametros. Empleados_TX_PorSector esperaba 3 y se le pasaron 1
__________________________

Log Entry : 
01/08/2014 01:00:27
Error in: http://localhost:40053/Pronto500/Pedido/Edit/18262. Error Message:Me faltan parametros. Empleados_TX_PorSector esperaba 3 y se le pasaron 1
__________________________

Log Entry : 
01/08/2014 01:00:30
Error in: http://localhost:40053/Pronto500/Empleado/EmpleadosParaComboSectorCompras/. Error Message:Me faltan parametros. Empleados_TX_PorSector esperaba 3 y se le pasaron 1
__________________________

Log Entry : 
01/08/2014 01:01:40
Error in: http://localhost:40053/Pronto500/Pedido/Edit/18262. Error Message:Me faltan parametros. Empleados_TX_PorSector esperaba 3 y se le pasaron 1
__________________________

Log Entry : 
01/08/2014 01:01:43
Error in: http://localhost:40053/Pronto500/Empleado/EmpleadosParaComboSectorCompras/. Error Message:Me faltan parametros. Empleados_TX_PorSector esperaba 3 y se le pasaron 1
__________________________

Log Entry : 
01/08/2014 01:03:47
Error in: http://localhost:40053/Pronto500/Pedido/Edit/18262. Error Message:Me faltan parametros. Empleados_TX_PorSector esperaba 3 y se le pasaron 1
__________________________

Log Entry : 
01/08/2014 01:03:50
Error in: http://localhost:40053/Pronto500/Empleado/EmpleadosParaComboSectorCompras/. Error Message:Me faltan parametros. Empleados_TX_PorSector esperaba 3 y se le pasaron 1
__________________________

Log Entry : 
01/08/2014 01:10:53
Error in: http://localhost:40053/Pronto500/Pedido/Edit/18262. Error Message:Me faltan parametros. Empleados_TX_PorSector esperaba 3 y se le pasaron 1
__________________________

Log Entry : 
01/08/2014 01:10:55
Error in: http://localhost:40053/Pronto500/Empleado/EmpleadosParaComboSectorCompras/. Error Message:Me faltan parametros. Empleados_TX_PorSector esperaba 3 y se le pasaron 1
__________________________

Log Entry : 
01/08/2014 01:11:09
Error in: http://localhost:40053/Pronto500/Pedido/Edit/18262. Error Message:Me faltan parametros. Empleados_TX_PorSector esperaba 3 y se le pasaron 1
__________________________

Log Entry : 
01/08/2014 01:11:11
Error in: http://localhost:40053/Pronto500/Empleado/EmpleadosParaComboSectorCompras/. Error Message:Me faltan parametros. Empleados_TX_PorSector esperaba 3 y se le pasaron 1
__________________________

Log Entry : 
01/08/2014 01:13:00
Error in: http://localhost:40053/Pronto500/Pedido/Edit/18262. Error Message:Me faltan parametros. Empleados_TX_PorSector esperaba 3 y se le pasaron 1
__________________________

Log Entry : 
01/08/2014 01:13:03
Error in: http://localhost:40053/Pronto500/Empleado/EmpleadosParaComboSectorCompras/. Error Message:Me faltan parametros. Empleados_TX_PorSector esperaba 3 y se le pasaron 1
__________________________

Log Entry : 
01/08/2014 01:14:30
Error in: http://localhost:40053/Pronto500/Pedido/Edit/18262. Error Message:Me faltan parametros. Empleados_TX_PorSector esperaba 3 y se le pasaron 1
__________________________

Log Entry : 
01/08/2014 01:14:33
Error in: http://localhost:40053/Pronto500/Empleado/EmpleadosParaComboSectorCompras/. Error Message:Me faltan parametros. Empleados_TX_PorSector esperaba 3 y se le pasaron 1
__________________________

Log Entry : 
01/08/2014 01:14:54
Error in: http://localhost:40053/Pronto500/Pedido/Edit/18262. Error Message:Me faltan parametros. Empleados_TX_PorSector esperaba 3 y se le pasaron 1
__________________________

Log Entry : 
01/08/2014 01:14:57
Error in: http://localhost:40053/Pronto500/Empleado/EmpleadosParaComboSectorCompras/. Error Message:Me faltan parametros. Empleados_TX_PorSector esperaba 3 y se le pasaron 1
__________________________

Log Entry : 
01/08/2014 01:17:06
Error in: http://localhost:40053/Pronto500/Pedido/Edit/18262. Error Message:Me faltan parametros. Empleados_TX_PorSector esperaba 3 y se le pasaron 1
__________________________

Log Entry : 
01/08/2014 01:17:10
Error in: http://localhost:40053/Pronto500/Empleado/EmpleadosParaComboSectorCompras/. Error Message:Me faltan parametros. Empleados_TX_PorSector esperaba 3 y se le pasaron 1
__________________________

Log Entry : 
01/08/2014 01:17:36
Error in: http://localhost:40053/Pronto500/Pedido/Edit/18262. Error Message:Me faltan parametros. Empleados_TX_PorSector esperaba 3 y se le pasaron 1
__________________________

Log Entry : 
01/08/2014 01:17:40
Error in: http://localhost:40053/Pronto500/Empleado/EmpleadosParaComboSectorCompras/. Error Message:Me faltan parametros. Empleados_TX_PorSector esperaba 3 y se le pasaron 1
__________________________

Log Entry : 
01/08/2014 01:18:33
Error in: http://localhost:40053/Pronto500/Pedido/Edit/18262. Error Message:Me faltan parametros. Empleados_TX_PorSector esperaba 3 y se le pasaron 1
__________________________

Log Entry : 
01/08/2014 01:18:36
Error in: http://localhost:40053/Pronto500/Empleado/EmpleadosParaComboSectorCompras/. Error Message:Me faltan parametros. Empleados_TX_PorSector esperaba 3 y se le pasaron 1
__________________________

Log Entry : 
01/08/2014 01:19:07
Error in: http://localhost:40053/Pronto500/Pedido/AnularFirmas. Error Message:System.Data.SqlClient.SqlException
String or binary data would be truncated.
The statement has been terminated.
   at System.Data.SqlClient.SqlConnection.OnError(SqlException exception, Boolean breakConnection)
   at System.Data.SqlClient.SqlInternalConnection.OnError(SqlException exception, Boolean breakConnection)
   at System.Data.SqlClient.TdsParser.ThrowExceptionAndWarning()
   at System.Data.SqlClient.TdsParser.Run(RunBehavior runBehavior, SqlCommand cmdHandler, SqlDataReader dataStream, BulkCopySimpleResultSet bulkCopyHandler, TdsParserStateObject stateObj)
   at System.Data.SqlClient.SqlDataReader.SetMetaData(_SqlMetaDataSet metaData, Boolean moreInfo)
   at System.Data.SqlClient.TdsParser.Run(RunBehavior runBehavior, SqlCommand cmdHandler, SqlDataReader dataStream, BulkCopySimpleResultSet bulkCopyHandler, TdsParserStateObject stateObj)
   at System.Data.SqlClient.SqlDataReader.ConsumeMetaData()
   at System.Data.SqlClient.SqlDataReader.get_MetaData()
   at System.Data.SqlClient.SqlCommand.FinishExecuteReader(SqlDataReader ds, RunBehavior runBehavior, String resetOptionsString)
   at System.Data.SqlClient.SqlCommand.RunExecuteReaderTds(CommandBehavior cmdBehavior, RunBehavior runBehavior, Boolean returnStream, Boolean async)
   at System.Data.SqlClient.SqlCommand.RunExecuteReader(CommandBehavior cmdBehavior, RunBehavior runBehavior, Boolean returnStream, String method, DbAsyncResult result)
   at System.Data.SqlClient.SqlCommand.RunExecuteReader(CommandBehavior cmdBehavior, RunBehavior runBehavior, Boolean returnStream, String method)
   at System.Data.SqlClient.SqlCommand.ExecuteReader(CommandBehavior behavior, String method)
   at System.Data.SqlClient.SqlCommand.ExecuteReader()
   at ProntoMVC.Models.TablasDAL.FillTreeEntity(SqlCommand sqlCommand) in C:\Backup\BDL\ProntoMVC\ProntoMVC\Models\ModeloDAL.cs:line 265
   at ProntoMVC.Models.TablasDAL.ArbolRegenerar(String nombrebase) in C:\Backup\BDL\ProntoMVC\ProntoMVC\Models\ModeloDAL.cs:line 257
   at ProntoMVC.Controllers.PedidoController.BatchUpdate(Pedido Pedido) in C:\Backup\BDL\ProntoMVC\ProntoMVC\Controllers\PedidoController.cs:line 908
.Net SqlClient Data Provider
__________________________

Log Entry : 
01/08/2014 01:19:09
Error in: http://localhost:40053/Pronto500/Pedido/Edit/18262. Error Message:Me faltan parametros. Empleados_TX_PorSector esperaba 3 y se le pasaron 1
__________________________

Log Entry : 
01/08/2014 01:19:12
Error in: http://localhost:40053/Pronto500/Empleado/EmpleadosParaComboSectorCompras/. Error Message:Me faltan parametros. Empleados_TX_PorSector esperaba 3 y se le pasaron 1
__________________________

Log Entry : 
01/08/2014 01:21:52
Error in: http://localhost:40053/Pronto500/Pedido/Edit/-1. Error Message:Me faltan parametros. Empleados_TX_PorSector esperaba 3 y se le pasaron 1
__________________________

Log Entry : 
01/08/2014 01:21:54
Error in: http://localhost:40053/Pronto500/Empleado/EmpleadosParaComboSectorCompras/. Error Message:Me faltan parametros. Empleados_TX_PorSector esperaba 3 y se le pasaron 1
__________________________

Log Entry : 
01/08/2014 15:26:24
Error in: http://localhost:40053/Pronto500/Pedido/Edit/-1. Error Message:Me faltan parametros. Empleados_TX_PorSector esperaba 3 y se le pasaron 1
__________________________

Log Entry : 
01/08/2014 15:26:27
Error in: http://localhost:40053/Pronto500/Empleado/EmpleadosParaComboSectorCompras/. Error Message:Me faltan parametros. Empleados_TX_PorSector esperaba 3 y se le pasaron 1
__________________________

Log Entry : 
01/08/2014 15:27:18
Error in: http://localhost:40053/Pronto500/Pedido/Edit/-1. Error Message:Me faltan parametros. Empleados_TX_PorSector esperaba 3 y se le pasaron 1
__________________________

Log Entry : 
01/08/2014 15:27:23
Error in: http://localhost:40053/Pronto500/Empleado/EmpleadosParaComboSectorCompras/. Error Message:Me faltan parametros. Empleados_TX_PorSector esperaba 3 y se le pasaron 1
__________________________

Log Entry : 
01/08/2014 16:37:18
Error in: http://localhost:40053/Pronto500/Pedido/Edit/18257. Error Message:Me faltan parametros. Empleados_TX_PorSector esperaba 3 y se le pasaron 1
__________________________

Log Entry : 
01/08/2014 16:37:20
Error in: http://localhost:40053/Pronto500/Empleado/EmpleadosParaComboSectorCompras/. Error Message:Me faltan parametros. Empleados_TX_PorSector esperaba 3 y se le pasaron 1
__________________________

Log Entry : 
01/08/2014 16:39:08
Error in: http://localhost:40053/Pronto500/Pedido/AnularFirmas. Error Message:System.Data.SqlClient.SqlException
String or binary data would be truncated.
The statement has been terminated.
   at System.Data.SqlClient.SqlConnection.OnError(SqlException exception, Boolean breakConnection)
   at System.Data.SqlClient.SqlInternalConnection.OnError(SqlException exception, Boolean breakConnection)
   at System.Data.SqlClient.TdsParser.ThrowExceptionAndWarning()
   at System.Data.SqlClient.TdsParser.Run(RunBehavior runBehavior, SqlCommand cmdHandler, SqlDataReader dataStream, BulkCopySimpleResultSet bulkCopyHandler, TdsParserStateObject stateObj)
   at System.Data.SqlClient.SqlDataReader.SetMetaData(_SqlMetaDataSet metaData, Boolean moreInfo)
   at System.Data.SqlClient.TdsParser.Run(RunBehavior runBehavior, SqlCommand cmdHandler, SqlDataReader dataStream, BulkCopySimpleResultSet bulkCopyHandler, TdsParserStateObject stateObj)
   at System.Data.SqlClient.SqlDataReader.ConsumeMetaData()
   at System.Data.SqlClient.SqlDataReader.get_MetaData()
   at System.Data.SqlClient.SqlCommand.FinishExecuteReader(SqlDataReader ds, RunBehavior runBehavior, String resetOptionsString)
   at System.Data.SqlClient.SqlCommand.RunExecuteReaderTds(CommandBehavior cmdBehavior, RunBehavior runBehavior, Boolean returnStream, Boolean async)
   at System.Data.SqlClient.SqlCommand.RunExecuteReader(CommandBehavior cmdBehavior, RunBehavior runBehavior, Boolean returnStream, String method, DbAsyncResult result)
   at System.Data.SqlClient.SqlCommand.RunExecuteReader(CommandBehavior cmdBehavior, RunBehavior runBehavior, Boolean returnStream, String method)
   at System.Data.SqlClient.SqlCommand.ExecuteReader(CommandBehavior behavior, String method)
   at System.Data.SqlClient.SqlCommand.ExecuteReader()
   at ProntoMVC.Models.TablasDAL.FillTreeEntity(SqlCommand sqlCommand) in C:\Backup\BDL\ProntoMVC\ProntoMVC\Models\ModeloDAL.cs:line 265
   at ProntoMVC.Models.TablasDAL.ArbolRegenerar(String nombrebase) in C:\Backup\BDL\ProntoMVC\ProntoMVC\Models\ModeloDAL.cs:line 257
   at ProntoMVC.Controllers.PedidoController.BatchUpdate(Pedido Pedido) in C:\Backup\BDL\ProntoMVC\ProntoMVC\Controllers\PedidoController.cs:line 908
.Net SqlClient Data Provider
__________________________

Log Entry : 
01/08/2014 16:39:10
Error in: http://localhost:40053/Pronto500/Pedido/Edit/18257. Error Message:Me faltan parametros. Empleados_TX_PorSector esperaba 3 y se le pasaron 1
__________________________

Log Entry : 
01/08/2014 16:39:13
Error in: http://localhost:40053/Pronto500/Empleado/EmpleadosParaComboSectorCompras/. Error Message:Me faltan parametros. Empleados_TX_PorSector esperaba 3 y se le pasaron 1
__________________________

Log Entry : 
01/08/2014 17:28:12
Error in: http://localhost:40053/Pronto500/Pedido/Edit/-1. Error Message:Me faltan parametros. Empleados_TX_PorSector esperaba 3 y se le pasaron 1
__________________________

Log Entry : 
01/08/2014 17:28:15
Error in: http://localhost:40053/Pronto500/Empleado/EmpleadosParaComboSectorCompras/. Error Message:Me faltan parametros. Empleados_TX_PorSector esperaba 3 y se le pasaron 1
__________________________

Log Entry : 
01/08/2014 18:41:24
Error in: http://localhost:40053/Pronto500/Pedido/Edit/-1. Error Message:Me faltan parametros. Empleados_TX_PorSector esperaba 3 y se le pasaron 1
__________________________

Log Entry : 
01/08/2014 18:41:34
Error in: http://localhost:40053/Pronto500/Empleado/EmpleadosParaComboSectorCompras/. Error Message:Me faltan parametros. Empleados_TX_PorSector esperaba 3 y se le pasaron 1
__________________________

Log Entry : 
01/08/2014 18:43:20
Error in: http://localhost:40053/Pronto500/Pedido/Edit/-1. Error Message:Me faltan parametros. Empleados_TX_PorSector esperaba 3 y se le pasaron 1
__________________________

Log Entry : 
01/08/2014 18:43:24
Error in: http://localhost:40053/Pronto500/Empleado/EmpleadosParaComboSectorCompras/. Error Message:Me faltan parametros. Empleados_TX_PorSector esperaba 3 y se le pasaron 1
__________________________

Log Entry : 
01/08/2014 18:45:56
Error in: http://localhost:40053/Pronto500/Pedido/Edit/-1. Error Message:Me faltan parametros. Empleados_TX_PorSector esperaba 3 y se le pasaron 1
__________________________

Log Entry : 
01/08/2014 18:45:59
Error in: http://localhost:40053/Pronto500/Empleado/EmpleadosParaComboSectorCompras/. Error Message:Me faltan parametros. Empleados_TX_PorSector esperaba 3 y se le pasaron 1
__________________________

Log Entry : 
01/08/2014 18:46:12
Error in: http://localhost:40053/Pronto500/Pedido/Edit/18255. Error Message:Me faltan parametros. Empleados_TX_PorSector esperaba 3 y se le pasaron 1
__________________________

Log Entry : 
01/08/2014 18:46:17
Error in: http://localhost:40053/Pronto500/Empleado/EmpleadosParaComboSectorCompras/. Error Message:Me faltan parametros. Empleados_TX_PorSector esperaba 3 y se le pasaron 1
__________________________

Log Entry : 
01/08/2014 18:46:30
Error in: http://localhost:40053/Pronto500/Pedido/Edit/18234. Error Message:Me faltan parametros. Empleados_TX_PorSector esperaba 3 y se le pasaron 1
__________________________

Log Entry : 
01/08/2014 18:46:33
Error in: http://localhost:40053/Pronto500/Empleado/EmpleadosParaComboSectorCompras/. Error Message:Me faltan parametros. Empleados_TX_PorSector esperaba 3 y se le pasaron 1
__________________________
