
Log Entry : 
10/16/2014 10:50:20
Error in: http://localhost:40053/Pronto500/Pedido/Edit/-1. Error Message:Me faltan parametros. Empleados_TX_PorSector esperaba 3 y se le pasaron 1
__________________________

Log Entry : 
10/16/2014 10:52:29
Error in: http://localhost:40053/Pronto500/Pedido/Edit/-1. Error Message:Me faltan parametros. Empleados_TX_PorSector esperaba 3 y se le pasaron 1
__________________________

Log Entry : 
10/16/2014 10:56:38
Error in: http://localhost:40053/Pronto500/Pedido/Edit/-1. Error Message:Me faltan parametros. Empleados_TX_PorSector esperaba 3 y se le pasaron 1
__________________________

Log Entry : 
10/16/2014 10:57:33
Error in: http://localhost:40053/Pronto500/Pedido/Edit/-1. Error Message:Me faltan parametros. Empleados_TX_PorSector esperaba 3 y se le pasaron 1
__________________________

Log Entry : 
10/16/2014 11:00:27
Error in: http://localhost:40053/Pronto500/Pedido/Edit/-1. Error Message:Me faltan parametros. Empleados_TX_PorSector esperaba 3 y se le pasaron 1
__________________________

Log Entry : 
10/16/2014 11:06:58
Error in: http://localhost:40053/Pronto500/Pedido/Edit/-1. Error Message:Me faltan parametros. Empleados_TX_PorSector esperaba 3 y se le pasaron 1
__________________________

Log Entry : 
10/16/2014 11:14:57
Error in: http://localhost:40053/Pronto500/Pedido/Edit/-1. Error Message:Me faltan parametros. Empleados_TX_PorSector esperaba 3 y se le pasaron 1
__________________________

Log Entry : 
10/16/2014 11:22:33
Error in: http://localhost:40053/Pronto500/Pedido/Edit/-1. Error Message:Me faltan parametros. Empleados_TX_PorSector esperaba 3 y se le pasaron 1
__________________________

Log Entry : 
10/16/2014 11:22:46
Error in: http://localhost:40053/Pronto500/Empleado/EmpleadosParaComboSectorCompras/. Error Message:Me faltan parametros. Empleados_TX_PorSector esperaba 3 y se le pasaron 1
__________________________

Log Entry : 
10/16/2014 11:23:05
Error in: http://localhost:40053/Pronto500/Pedido/Edit/-1. Error Message:Me faltan parametros. Empleados_TX_PorSector esperaba 3 y se le pasaron 1
__________________________

Log Entry : 
10/16/2014 11:23:17
Error in: http://localhost:40053/Pronto500/Empleado/EmpleadosParaComboSectorCompras/. Error Message:Me faltan parametros. Empleados_TX_PorSector esperaba 3 y se le pasaron 1
__________________________

Log Entry : 
10/16/2014 11:23:21
Error in: http://localhost:40053/Pronto500/Pedido/Edit/-1. Error Message:Me faltan parametros. Empleados_TX_PorSector esperaba 3 y se le pasaron 1
__________________________

Log Entry : 
10/16/2014 11:24:00
Error in: http://localhost:40053/Pronto500/Pedido/Edit/-1. Error Message:Me faltan parametros. Empleados_TX_PorSector esperaba 3 y se le pasaron 1
__________________________

Log Entry : 
10/16/2014 11:24:49
Error in: http://localhost:40053/Pronto500/Pedido/Edit/-1. Error Message:Me faltan parametros. Empleados_TX_PorSector esperaba 3 y se le pasaron 1
__________________________

Log Entry : 
10/16/2014 11:25:06
Error in: http://localhost:40053/Pronto500/Pedido/Edit/-1. Error Message:Me faltan parametros. Empleados_TX_PorSector esperaba 3 y se le pasaron 1
__________________________

Log Entry : 
10/16/2014 11:25:48
Error in: http://localhost:40053/Pronto500/Pedido/Edit/-1. Error Message:Me faltan parametros. Empleados_TX_PorSector esperaba 3 y se le pasaron 1
__________________________

Log Entry : 
10/16/2014 11:26:41
Error in: http://localhost:40053/Pronto500/Pedido/Edit/-1. Error Message:Me faltan parametros. Empleados_TX_PorSector esperaba 3 y se le pasaron 1
__________________________

Log Entry : 
10/16/2014 11:27:10
Error in: http://localhost:40053/Pronto500/Pedido/Edit/-1. Error Message:Me faltan parametros. Empleados_TX_PorSector esperaba 3 y se le pasaron 1
__________________________

Log Entry : 
10/16/2014 11:27:20
Error in: http://localhost:40053/Pronto500/Empleado/EmpleadosParaComboSectorCompras/. Error Message:Me faltan parametros. Empleados_TX_PorSector esperaba 3 y se le pasaron 1
__________________________

Log Entry : 
10/16/2014 11:28:01
Error in: http://localhost:40053/Pronto500/Pedido/Edit/-1. Error Message:Me faltan parametros. Empleados_TX_PorSector esperaba 3 y se le pasaron 1
__________________________

Log Entry : 
10/16/2014 11:28:12
Error in: http://localhost:40053/Pronto500/Empleado/EmpleadosParaComboSectorCompras/. Error Message:Me faltan parametros. Empleados_TX_PorSector esperaba 3 y se le pasaron 1
__________________________

Log Entry : 
10/16/2014 11:29:22
Error in: http://localhost:40053/Pronto500/Pedido/Edit/-1. Error Message:Me faltan parametros. Empleados_TX_PorSector esperaba 3 y se le pasaron 1
__________________________

Log Entry : 
10/16/2014 11:29:31
Error in: http://localhost:40053/Pronto500/Empleado/EmpleadosParaComboSectorCompras/. Error Message:Me faltan parametros. Empleados_TX_PorSector esperaba 3 y se le pasaron 1
__________________________

Log Entry : 
10/16/2014 11:30:22
Error in: http://localhost:40053/Pronto500/Pedido/Edit/-1. Error Message:Me faltan parametros. Empleados_TX_PorSector esperaba 3 y se le pasaron 1
__________________________

Log Entry : 
10/16/2014 11:30:32
Error in: http://localhost:40053/Pronto500/Empleado/EmpleadosParaComboSectorCompras/. Error Message:Me faltan parametros. Empleados_TX_PorSector esperaba 3 y se le pasaron 1
__________________________

Log Entry : 
10/16/2014 13:25:55
Error in: http://localhost:40053/Pronto500/. Error Message:System.Data.Entity.Core.EntityException
The underlying provider failed on Open.
   en System.Data.Entity.Core.EntityClient.EntityConnection.Open()
   en System.Data.Entity.Core.Objects.ObjectContext.EnsureConnection(Boolean shouldMonitorTransactions)
   en System.Data.Entity.Core.Objects.ObjectContext.ExecuteInTransaction[T](Func`1 func, IDbExecutionStrategy executionStrategy, Boolean startLocalTransaction, Boolean releaseConnectionOnSuccess)
   en System.Data.Entity.Core.Objects.ObjectQuery`1.<>c__DisplayClass3.<GetResults>b__1()
   en System.Data.Entity.SqlServer.DefaultSqlExecutionStrategy.Execute[TResult](Func`1 operation)
   en System.Data.Entity.Core.Objects.ObjectQuery`1.GetResults(Nullable`1 forMergeOption)
   en System.Data.Entity.Core.Objects.ObjectQuery`1.<System.Collections.Generic.IEnumerable<T>.GetEnumerator>b__0()
   en System.Data.Entity.Internal.LazyEnumerator`1.MoveNext()
   en System.Linq.Enumerable.FirstOrDefault[TSource](IEnumerable`1 source)
   en System.Data.Entity.Core.Objects.ELinq.ObjectQueryProvider.<GetElementFunction>b__1[TResult](IEnumerable`1 sequence)
   en System.Data.Entity.Core.Objects.ELinq.ObjectQueryProvider.ExecuteSingle[TResult](IEnumerable`1 query, Expression queryRoot)
   en System.Data.Entity.Core.Objects.ELinq.ObjectQueryProvider.System.Linq.IQueryProvider.Execute[TResult](Expression expression)
   en System.Data.Entity.Internal.Linq.DbQueryProvider.Execute[TResult](Expression expression)
   en System.Linq.Queryable.FirstOrDefault[TSource](IQueryable`1 source)
   en ProntoMVC.Controllers.HomeController.Index() en C:\Backup\BDL\ProntoMVC\ProntoMVC\Controllers\HomeController.cs:línea 60
EntityFramework
__________________________

Log Entry : 
10/16/2014 13:26:01
Error in: http://localhost:40053/Pronto500/MvcMembership/UserAdministration. Error Message:System.ArgumentException
The argument 'nameOrConnectionString' cannot be null, empty or contain only white space.
   en System.Data.Entity.Utilities.Check.NotEmpty(String value, String parameterName)
   en System.Data.Entity.DbContext..ctor(String nameOrConnectionString)
   en ProntoMVC.Data.Models.DemoProntoEntities..ctor(String connectionString) en C:\Backup\BDL\ProntoMVC\Data\Models\Class1.cs:línea 20
   en ProntoMVC.Areas.MvcMembership.Controllers.UserAdministrationController.RecargarViewbag(Guid id) en C:\Backup\BDL\ProntoMVC\ProntoMVC\Areas\MvcMembership\Controllers\UserAdministrationController.cs:línea 411
EntityFramework
__________________________

Log Entry : 
10/16/2014 13:26:51
Error in: http://localhost:40053/Pronto500/MvcMembership/UserAdministration/CreateUser/-1. Error Message:System.ArgumentException
The argument 'nameOrConnectionString' cannot be null, empty or contain only white space.
   en System.Data.Entity.Utilities.Check.NotEmpty(String value, String parameterName)
   en System.Data.Entity.DbContext..ctor(String nameOrConnectionString)
   en ProntoMVC.Data.Models.DemoProntoEntities..ctor(String connectionString) en C:\Backup\BDL\ProntoMVC\Data\Models\Class1.cs:línea 20
   en ProntoMVC.Areas.MvcMembership.Controllers.UserAdministrationController.RecargarViewbag(Guid id) en C:\Backup\BDL\ProntoMVC\ProntoMVC\Areas\MvcMembership\Controllers\UserAdministrationController.cs:línea 411
EntityFramework
__________________________

Log Entry : 
10/16/2014 13:29:21
Error in: http://localhost:40053/Pronto500/MvcMembership/UserAdministration/CreateUser/-1. Error Message:System.ArgumentException
The argument 'nameOrConnectionString' cannot be null, empty or contain only white space.
   en System.Data.Entity.Utilities.Check.NotEmpty(String value, String parameterName)
   en System.Data.Entity.DbContext..ctor(String nameOrConnectionString)
   en ProntoMVC.Data.Models.DemoProntoEntities..ctor(String connectionString) en C:\Backup\BDL\ProntoMVC\Data\Models\Class1.cs:línea 20
   en ProntoMVC.Areas.MvcMembership.Controllers.UserAdministrationController.RecargarViewbag(Guid id) en C:\Backup\BDL\ProntoMVC\ProntoMVC\Areas\MvcMembership\Controllers\UserAdministrationController.cs:línea 411
EntityFramework
__________________________

Log Entry : 
10/16/2014 13:32:13
Error in: http://localhost:40053/Pronto500/MvcMembership/UserAdministration/CreateUser/-1. Error Message:System.ArgumentException
The argument 'nameOrConnectionString' cannot be null, empty or contain only white space.
   en System.Data.Entity.Utilities.Check.NotEmpty(String value, String parameterName)
   en System.Data.Entity.DbContext..ctor(String nameOrConnectionString)
   en ProntoMVC.Data.Models.DemoProntoEntities..ctor(String connectionString) en C:\Backup\BDL\ProntoMVC\Data\Models\Class1.cs:línea 20
   en ProntoMVC.Areas.MvcMembership.Controllers.UserAdministrationController.RecargarViewbag(Guid id) en C:\Backup\BDL\ProntoMVC\ProntoMVC\Areas\MvcMembership\Controllers\UserAdministrationController.cs:línea 411
EntityFramework
__________________________

Log Entry : 
10/16/2014 13:32:33
Error in: http://localhost:40053/Pronto500/. Error Message:System.Data.Entity.Core.EntityException
The underlying provider failed on Open.
   en System.Data.Entity.Core.EntityClient.EntityConnection.Open()
   en System.Data.Entity.Core.Objects.ObjectContext.EnsureConnection(Boolean shouldMonitorTransactions)
   en System.Data.Entity.Core.Objects.ObjectContext.ExecuteInTransaction[T](Func`1 func, IDbExecutionStrategy executionStrategy, Boolean startLocalTransaction, Boolean releaseConnectionOnSuccess)
   en System.Data.Entity.Core.Objects.ObjectQuery`1.<>c__DisplayClass3.<GetResults>b__1()
   en System.Data.Entity.SqlServer.DefaultSqlExecutionStrategy.Execute[TResult](Func`1 operation)
   en System.Data.Entity.Core.Objects.ObjectQuery`1.GetResults(Nullable`1 forMergeOption)
   en System.Data.Entity.Core.Objects.ObjectQuery`1.<System.Collections.Generic.IEnumerable<T>.GetEnumerator>b__0()
   en System.Data.Entity.Internal.LazyEnumerator`1.MoveNext()
   en System.Linq.Enumerable.FirstOrDefault[TSource](IEnumerable`1 source)
   en System.Data.Entity.Core.Objects.ELinq.ObjectQueryProvider.<GetElementFunction>b__1[TResult](IEnumerable`1 sequence)
   en System.Data.Entity.Core.Objects.ELinq.ObjectQueryProvider.ExecuteSingle[TResult](IEnumerable`1 query, Expression queryRoot)
   en System.Data.Entity.Core.Objects.ELinq.ObjectQueryProvider.System.Linq.IQueryProvider.Execute[TResult](Expression expression)
   en System.Data.Entity.Internal.Linq.DbQueryProvider.Execute[TResult](Expression expression)
   en System.Linq.Queryable.FirstOrDefault[TSource](IQueryable`1 source)
   en ProntoMVC.Controllers.HomeController.Index() en C:\Backup\BDL\ProntoMVC\ProntoMVC\Controllers\HomeController.cs:línea 60
EntityFramework
__________________________

Log Entry : 
10/16/2014 13:32:58
Error in: http://localhost:40053/Pronto500/. Error Message:System.Data.Entity.Core.EntityException
The underlying provider failed on Open.
   en System.Data.Entity.Core.EntityClient.EntityConnection.Open()
   en System.Data.Entity.Core.Objects.ObjectContext.EnsureConnection(Boolean shouldMonitorTransactions)
   en System.Data.Entity.Core.Objects.ObjectContext.ExecuteInTransaction[T](Func`1 func, IDbExecutionStrategy executionStrategy, Boolean startLocalTransaction, Boolean releaseConnectionOnSuccess)
   en System.Data.Entity.Core.Objects.ObjectQuery`1.<>c__DisplayClass3.<GetResults>b__1()
   en System.Data.Entity.SqlServer.DefaultSqlExecutionStrategy.Execute[TResult](Func`1 operation)
   en System.Data.Entity.Core.Objects.ObjectQuery`1.GetResults(Nullable`1 forMergeOption)
   en System.Data.Entity.Core.Objects.ObjectQuery`1.<System.Collections.Generic.IEnumerable<T>.GetEnumerator>b__0()
   en System.Data.Entity.Internal.LazyEnumerator`1.MoveNext()
   en System.Linq.Enumerable.FirstOrDefault[TSource](IEnumerable`1 source)
   en System.Data.Entity.Core.Objects.ELinq.ObjectQueryProvider.<GetElementFunction>b__1[TResult](IEnumerable`1 sequence)
   en System.Data.Entity.Core.Objects.ELinq.ObjectQueryProvider.ExecuteSingle[TResult](IEnumerable`1 query, Expression queryRoot)
   en System.Data.Entity.Core.Objects.ELinq.ObjectQueryProvider.System.Linq.IQueryProvider.Execute[TResult](Expression expression)
   en System.Data.Entity.Internal.Linq.DbQueryProvider.Execute[TResult](Expression expression)
   en System.Linq.Queryable.FirstOrDefault[TSource](IQueryable`1 source)
   en ProntoMVC.Controllers.HomeController.Index() en C:\Backup\BDL\ProntoMVC\ProntoMVC\Controllers\HomeController.cs:línea 60
EntityFramework
__________________________

Log Entry : 
10/16/2014 13:35:23
Error in: http://localhost:40053/Pronto500/. Error Message:System.Data.Entity.Core.EntityException
The underlying provider failed on Open.
   en System.Data.Entity.Core.EntityClient.EntityConnection.Open()
   en System.Data.Entity.Core.Objects.ObjectContext.EnsureConnection(Boolean shouldMonitorTransactions)
   en System.Data.Entity.Core.Objects.ObjectContext.ExecuteInTransaction[T](Func`1 func, IDbExecutionStrategy executionStrategy, Boolean startLocalTransaction, Boolean releaseConnectionOnSuccess)
   en System.Data.Entity.Core.Objects.ObjectQuery`1.<>c__DisplayClass3.<GetResults>b__1()
   en System.Data.Entity.SqlServer.DefaultSqlExecutionStrategy.Execute[TResult](Func`1 operation)
   en System.Data.Entity.Core.Objects.ObjectQuery`1.GetResults(Nullable`1 forMergeOption)
   en System.Data.Entity.Core.Objects.ObjectQuery`1.<System.Collections.Generic.IEnumerable<T>.GetEnumerator>b__0()
   en System.Data.Entity.Internal.LazyEnumerator`1.MoveNext()
   en System.Linq.Enumerable.FirstOrDefault[TSource](IEnumerable`1 source)
   en System.Data.Entity.Core.Objects.ELinq.ObjectQueryProvider.<GetElementFunction>b__1[TResult](IEnumerable`1 sequence)
   en System.Data.Entity.Core.Objects.ELinq.ObjectQueryProvider.ExecuteSingle[TResult](IEnumerable`1 query, Expression queryRoot)
   en System.Data.Entity.Core.Objects.ELinq.ObjectQueryProvider.System.Linq.IQueryProvider.Execute[TResult](Expression expression)
   en System.Data.Entity.Internal.Linq.DbQueryProvider.Execute[TResult](Expression expression)
   en System.Linq.Queryable.FirstOrDefault[TSource](IQueryable`1 source)
   en ProntoMVC.Controllers.HomeController.Index() en C:\Backup\BDL\ProntoMVC\ProntoMVC\Controllers\HomeController.cs:línea 60
EntityFramework
__________________________

Log Entry : 
10/16/2014 13:35:25
Error in: http://localhost:40053/Pronto500/MvcMembership/UserAdministration. Error Message:System.ArgumentException
The argument 'nameOrConnectionString' cannot be null, empty or contain only white space.
   en System.Data.Entity.Utilities.Check.NotEmpty(String value, String parameterName)
   en System.Data.Entity.DbContext..ctor(String nameOrConnectionString)
   en ProntoMVC.Data.Models.DemoProntoEntities..ctor(String connectionString) en C:\Backup\BDL\ProntoMVC\Data\Models\Class1.cs:línea 20
   en ProntoMVC.Areas.MvcMembership.Controllers.UserAdministrationController.RecargarViewbag(Guid id) en C:\Backup\BDL\ProntoMVC\ProntoMVC\Areas\MvcMembership\Controllers\UserAdministrationController.cs:línea 411
EntityFramework
__________________________

Log Entry : 
10/16/2014 13:35:45
Error in: http://localhost:40053/Pronto500/MvcMembership/UserAdministration/CreateUser/-1. Error Message:System.ArgumentException
The argument 'nameOrConnectionString' cannot be null, empty or contain only white space.
   en System.Data.Entity.Utilities.Check.NotEmpty(String value, String parameterName)
   en System.Data.Entity.DbContext..ctor(String nameOrConnectionString)
   en ProntoMVC.Data.Models.DemoProntoEntities..ctor(String connectionString) en C:\Backup\BDL\ProntoMVC\Data\Models\Class1.cs:línea 20
   en ProntoMVC.Areas.MvcMembership.Controllers.UserAdministrationController.RecargarViewbag(Guid id) en C:\Backup\BDL\ProntoMVC\ProntoMVC\Areas\MvcMembership\Controllers\UserAdministrationController.cs:línea 411
EntityFramework
__________________________

Log Entry : 
10/16/2014 13:36:21
Error in: http://localhost:40053/Pronto500/MvcMembership/UserAdministration/CreateUser/-1. Error Message:System.ArgumentException
The argument 'nameOrConnectionString' cannot be null, empty or contain only white space.
   en System.Data.Entity.Utilities.Check.NotEmpty(String value, String parameterName)
   en System.Data.Entity.DbContext..ctor(String nameOrConnectionString)
   en ProntoMVC.Data.Models.DemoProntoEntities..ctor(String connectionString) en C:\Backup\BDL\ProntoMVC\Data\Models\Class1.cs:línea 20
   en ProntoMVC.Areas.MvcMembership.Controllers.UserAdministrationController.RecargarViewbag(Guid id) en C:\Backup\BDL\ProntoMVC\ProntoMVC\Areas\MvcMembership\Controllers\UserAdministrationController.cs:línea 411
EntityFramework
__________________________
