
Log Entry : 
04/29/2014 16:40:44
Error in: http://localhost:40053/Pronto500/Pedido/Edit/-1. Error Message:Me faltan parametros. Empleados_TX_PorSector esperaba 3 y se le pasaron 1
__________________________

Log Entry : 
04/29/2014 16:40:46
Error in: http://localhost:40053/Pronto500/Empleado/EmpleadosParaComboSectorCompras/. Error Message:Me faltan parametros. Empleados_TX_PorSector esperaba 3 y se le pasaron 1
__________________________

Log Entry : 
04/29/2014 16:42:42
Error in: http://localhost:40053/Pronto500/Pedido/Edit/-1. Error Message:Me faltan parametros. Empleados_TX_PorSector esperaba 3 y se le pasaron 1
__________________________

Log Entry : 
04/29/2014 16:42:45
Error in: http://localhost:40053/Pronto500/Empleado/EmpleadosParaComboSectorCompras/. Error Message:Me faltan parametros. Empleados_TX_PorSector esperaba 3 y se le pasaron 1
__________________________

Log Entry : 
04/29/2014 16:42:54
Error in: http://localhost:40053/Pronto500/Pedido/Edit/-1. Error Message:Me faltan parametros. Empleados_TX_PorSector esperaba 3 y se le pasaron 1
__________________________

Log Entry : 
04/29/2014 16:42:55
Error in: http://localhost:40053/Pronto500/Empleado/EmpleadosParaComboSectorCompras/. Error Message:Me faltan parametros. Empleados_TX_PorSector esperaba 3 y se le pasaron 1
__________________________

Log Entry : 
04/29/2014 16:43:35
Error in: http://localhost:40053/Pronto500/Pedido/Edit/-1. Error Message:Me faltan parametros. Empleados_TX_PorSector esperaba 3 y se le pasaron 1
__________________________

Log Entry : 
04/29/2014 16:43:37
Error in: http://localhost:40053/Pronto500/Empleado/EmpleadosParaComboSectorCompras/. Error Message:Me faltan parametros. Empleados_TX_PorSector esperaba 3 y se le pasaron 1
__________________________

Log Entry : 
04/29/2014 16:43:56
Error in: http://localhost:40053/Pronto500/Pedido/Edit/-1. Error Message:Me faltan parametros. Empleados_TX_PorSector esperaba 3 y se le pasaron 1
__________________________

Log Entry : 
04/29/2014 16:43:59
Error in: http://localhost:40053/Pronto500/Empleado/EmpleadosParaComboSectorCompras/. Error Message:Me faltan parametros. Empleados_TX_PorSector esperaba 3 y se le pasaron 1
__________________________

Log Entry : 
04/29/2014 16:50:33
Error in: http://localhost:40053/Pronto500/Pedido/Edit/-1. Error Message:Me faltan parametros. Empleados_TX_PorSector esperaba 3 y se le pasaron 1
__________________________

Log Entry : 
04/29/2014 16:50:34
Error in: http://localhost:40053/Pronto500/Empleado/EmpleadosParaComboSectorCompras/. Error Message:Me faltan parametros. Empleados_TX_PorSector esperaba 3 y se le pasaron 1
__________________________

Log Entry : 
04/29/2014 17:18:23
Error in: http://localhost:40053/Pronto500/Pedido/Edit/-1. Error Message:Me faltan parametros. Empleados_TX_PorSector esperaba 3 y se le pasaron 1
__________________________

Log Entry : 
04/29/2014 17:18:26
Error in: http://localhost:40053/Pronto500/Empleado/EmpleadosParaComboSectorCompras/. Error Message:Me faltan parametros. Empleados_TX_PorSector esperaba 3 y se le pasaron 1
__________________________

Log Entry : 
04/29/2014 17:32:39
Error in: http://localhost:40053/Pronto500/Pedido/Edit/-1. Error Message:Me faltan parametros. Empleados_TX_PorSector esperaba 3 y se le pasaron 1
__________________________

Log Entry : 
04/29/2014 17:32:42
Error in: http://localhost:40053/Pronto500/Empleado/EmpleadosParaComboSectorCompras/. Error Message:Me faltan parametros. Empleados_TX_PorSector esperaba 3 y se le pasaron 1
__________________________

Log Entry : 
04/29/2014 17:36:18
Error in: http://localhost:40053/Pronto500/Pedido/Edit/-1. Error Message:Me faltan parametros. Empleados_TX_PorSector esperaba 3 y se le pasaron 1
__________________________

Log Entry : 
04/29/2014 17:36:20
Error in: http://localhost:40053/Pronto500/Empleado/EmpleadosParaComboSectorCompras/. Error Message:Me faltan parametros. Empleados_TX_PorSector esperaba 3 y se le pasaron 1
__________________________

Log Entry : 
04/29/2014 17:38:02
Error in: http://localhost:40053/Pronto500/Pedido/Edit/-1. Error Message:Me faltan parametros. Empleados_TX_PorSector esperaba 3 y se le pasaron 1
__________________________

Log Entry : 
04/29/2014 17:38:04
Error in: http://localhost:40053/Pronto500/Empleado/EmpleadosParaComboSectorCompras/. Error Message:Me faltan parametros. Empleados_TX_PorSector esperaba 3 y se le pasaron 1
__________________________

Log Entry : 
04/29/2014 21:31:01
Error in: http://localhost:40053/Pronto500/ComprobanteProveedor/Test. Error Message:Me faltan parametros. Cuentas_TX_PorObraCuentaGasto esperaba 3 y se le pasaron 2
__________________________

Log Entry : 
04/29/2014 21:31:02
Error in: http://localhost:40053/Pronto500/ComprobanteProveedor/Test. Error Message:Me faltan parametros. Cuentas_TX_PorObraCuentaGasto esperaba 3 y se le pasaron 2
__________________________

Log Entry : 
04/29/2014 21:31:02
Error in: http://localhost:40053/Pronto500/ComprobanteProveedor/Test. Error Message:Me faltan parametros. Cuentas_TX_PorObraCuentaGasto esperaba 3 y se le pasaron 2
__________________________

Log Entry : 
04/29/2014 21:31:02
Error in: http://localhost:40053/Pronto500/ComprobanteProveedor/Test. Error Message:Me faltan parametros. Cuentas_TX_PorObraCuentaGasto esperaba 3 y se le pasaron 2
__________________________

Log Entry : 
04/29/2014 21:31:03
Error in: http://localhost:40053/Pronto500/ComprobanteProveedor/Test. Error Message:Me faltan parametros. Cuentas_TX_PorObraCuentaGasto esperaba 3 y se le pasaron 2
__________________________

Log Entry : 
04/29/2014 21:31:04
Error in: http://localhost:40053/Pronto500/ComprobanteProveedor/Test. Error Message:Me faltan parametros. Cuentas_TX_PorObraCuentaGasto esperaba 3 y se le pasaron 2
__________________________

Log Entry : 
04/29/2014 21:31:04
Error in: http://localhost:40053/Pronto500/ComprobanteProveedor/Test. Error Message:Me faltan parametros. Cuentas_TX_PorObraCuentaGasto esperaba 3 y se le pasaron 2
__________________________

Log Entry : 
04/29/2014 21:31:05
Error in: http://localhost:40053/Pronto500/ComprobanteProveedor/Test. Error Message:Me faltan parametros. Cuentas_TX_PorObraCuentaGasto esperaba 3 y se le pasaron 2
__________________________

Log Entry : 
04/29/2014 21:32:11
Error in: http://localhost:40053/Pronto500/Pedido/Edit/18286. Error Message:Me faltan parametros. Empleados_TX_PorSector esperaba 3 y se le pasaron 1
__________________________

Log Entry : 
04/29/2014 21:32:13
Error in: http://localhost:40053/Pronto500/Empleado/EmpleadosParaComboSectorCompras/. Error Message:Me faltan parametros. Empleados_TX_PorSector esperaba 3 y se le pasaron 1
__________________________
