
Log Entry : 
01/30/2014 08:45:15
Error in: http://localhost:40053/Pronto500/Pedido/Edit/-1. Error Message:Me faltan parametros. Empleados_TX_PorSector esperaba 3 y se le pasaron 1
__________________________

Log Entry : 
01/30/2014 08:45:27
Error in: http://localhost:40053/Pronto500/Empleado/EmpleadosParaComboSectorCompras/. Error Message:Me faltan parametros. Empleados_TX_PorSector esperaba 3 y se le pasaron 1
__________________________

Log Entry : 
01/30/2014 09:49:32
Error in: http://localhost:40053/Pronto500/Pedido/Edit/-1. Error Message:Me faltan parametros. Empleados_TX_PorSector esperaba 3 y se le pasaron 1
__________________________

Log Entry : 
01/30/2014 09:49:34
Error in: http://localhost:40053/Pronto500/Empleado/EmpleadosParaComboSectorCompras/. Error Message:Me faltan parametros. Empleados_TX_PorSector esperaba 3 y se le pasaron 1
__________________________

Log Entry : 
01/30/2014 10:00:39
Error in: http://localhost:40053/Pronto500/Empleado/EmpleadosParaComboSectorCompras/. Error Message:Me faltan parametros. Empleados_TX_PorSector esperaba 3 y se le pasaron 1
__________________________

Log Entry : 
01/30/2014 10:14:19
Error in: http://localhost:40053/Pronto500/Pedido/Edit/-1. Error Message:Me faltan parametros. Empleados_TX_PorSector esperaba 3 y se le pasaron 1
__________________________

Log Entry : 
01/30/2014 10:14:22
Error in: http://localhost:40053/Pronto500/Empleado/EmpleadosParaComboSectorCompras/. Error Message:Me faltan parametros. Empleados_TX_PorSector esperaba 3 y se le pasaron 1
__________________________

Log Entry : 
01/30/2014 10:15:18
Error in: http://localhost:40053/Pronto500/Pedido/Edit/-1. Error Message:Me faltan parametros. Empleados_TX_PorSector esperaba 3 y se le pasaron 1
__________________________

Log Entry : 
01/30/2014 10:15:20
Error in: http://localhost:40053/Pronto500/Empleado/EmpleadosParaComboSectorCompras/. Error Message:Me faltan parametros. Empleados_TX_PorSector esperaba 3 y se le pasaron 1
__________________________

Log Entry : 
01/30/2014 10:15:53
Error in: http://localhost:40053/Pronto500/Pedido/Edit/-1. Error Message:Me faltan parametros. Empleados_TX_PorSector esperaba 3 y se le pasaron 1
__________________________

Log Entry : 
01/30/2014 10:16:20
Error in: http://localhost:40053/Pronto500/Empleado/EmpleadosParaComboSectorCompras/. Error Message:Me faltan parametros. Empleados_TX_PorSector esperaba 3 y se le pasaron 1
__________________________

Log Entry : 
01/30/2014 10:18:13
Error in: http://localhost:40053/Pronto500/Pedido/Edit/-1. Error Message:Me faltan parametros. Empleados_TX_PorSector esperaba 3 y se le pasaron 1
__________________________

Log Entry : 
01/30/2014 10:18:19
Error in: http://localhost:40053/Pronto500/Empleado/EmpleadosParaComboSectorCompras/. Error Message:Me faltan parametros. Empleados_TX_PorSector esperaba 3 y se le pasaron 1
__________________________

Log Entry : 
01/30/2014 10:29:16
Error in: http://localhost:40053/Pronto500/Pedido/Edit/-1. Error Message:Me faltan parametros. Empleados_TX_PorSector esperaba 3 y se le pasaron 1
__________________________

Log Entry : 
01/30/2014 10:29:18
Error in: http://localhost:40053/Pronto500/Empleado/EmpleadosParaComboSectorCompras/. Error Message:Me faltan parametros. Empleados_TX_PorSector esperaba 3 y se le pasaron 1
__________________________

Log Entry : 
01/30/2014 10:38:41
Error in: http://localhost:40053/Pronto500/Pedido/Edit/-1. Error Message:Me faltan parametros. Empleados_TX_PorSector esperaba 3 y se le pasaron 1
__________________________

Log Entry : 
01/30/2014 10:38:43
Error in: http://localhost:40053/Pronto500/Empleado/EmpleadosParaComboSectorCompras/. Error Message:Me faltan parametros. Empleados_TX_PorSector esperaba 3 y se le pasaron 1
__________________________

Log Entry : 
01/30/2014 10:43:04
Error in: http://localhost:40053/Pronto500/Pedido/Edit/-1. Error Message:Me faltan parametros. Empleados_TX_PorSector esperaba 3 y se le pasaron 1
__________________________

Log Entry : 
01/30/2014 10:43:06
Error in: http://localhost:40053/Pronto500/Empleado/EmpleadosParaComboSectorCompras/. Error Message:Me faltan parametros. Empleados_TX_PorSector esperaba 3 y se le pasaron 1
__________________________

Log Entry : 
01/30/2014 10:46:02
Error in: http://localhost:40053/Pronto500/Pedido/Edit/-1. Error Message:Me faltan parametros. Empleados_TX_PorSector esperaba 3 y se le pasaron 1
__________________________

Log Entry : 
01/30/2014 10:46:09
Error in: http://localhost:40053/Pronto500/Empleado/EmpleadosParaComboSectorCompras/. Error Message:Me faltan parametros. Empleados_TX_PorSector esperaba 3 y se le pasaron 1
__________________________

Log Entry : 
01/30/2014 10:47:25
Error in: http://localhost:40053/Pronto500/Pedido/Edit/-1. Error Message:Me faltan parametros. Empleados_TX_PorSector esperaba 3 y se le pasaron 1
__________________________

Log Entry : 
01/30/2014 10:47:32
Error in: http://localhost:40053/Pronto500/Empleado/EmpleadosParaComboSectorCompras/. Error Message:Me faltan parametros. Empleados_TX_PorSector esperaba 3 y se le pasaron 1
__________________________

Log Entry : 
01/30/2014 10:48:20
Error in: http://localhost:40053/Pronto500/Pedido/Edit/-1. Error Message:Me faltan parametros. Empleados_TX_PorSector esperaba 3 y se le pasaron 1
__________________________

Log Entry : 
01/30/2014 10:48:28
Error in: http://localhost:40053/Pronto500/Empleado/EmpleadosParaComboSectorCompras/. Error Message:Me faltan parametros. Empleados_TX_PorSector esperaba 3 y se le pasaron 1
__________________________

Log Entry : 
01/30/2014 10:49:21
Error in: http://localhost:40053/Pronto500/Pedido/Edit/-1. Error Message:Me faltan parametros. Empleados_TX_PorSector esperaba 3 y se le pasaron 1
__________________________

Log Entry : 
01/30/2014 10:49:25
Error in: http://localhost:40053/Pronto500/Empleado/EmpleadosParaComboSectorCompras/. Error Message:Me faltan parametros. Empleados_TX_PorSector esperaba 3 y se le pasaron 1
__________________________

Log Entry : 
01/30/2014 10:50:07
Error in: http://localhost:40053/Pronto500/Pedido/Edit/-1. Error Message:Me faltan parametros. Empleados_TX_PorSector esperaba 3 y se le pasaron 1
__________________________

Log Entry : 
01/30/2014 10:50:11
Error in: http://localhost:40053/Pronto500/Empleado/EmpleadosParaComboSectorCompras/. Error Message:Me faltan parametros. Empleados_TX_PorSector esperaba 3 y se le pasaron 1
__________________________

Log Entry : 
01/30/2014 10:50:37
Error in: http://localhost:40053/Pronto500/Pedido/Edit/-1. Error Message:Me faltan parametros. Empleados_TX_PorSector esperaba 3 y se le pasaron 1
__________________________

Log Entry : 
01/30/2014 10:50:41
Error in: http://localhost:40053/Pronto500/Empleado/EmpleadosParaComboSectorCompras/. Error Message:Me faltan parametros. Empleados_TX_PorSector esperaba 3 y se le pasaron 1
__________________________

Log Entry : 
01/30/2014 10:52:47
Error in: http://localhost:40053/Pronto500/Pedido/Edit/-1. Error Message:Me faltan parametros. Empleados_TX_PorSector esperaba 3 y se le pasaron 1
__________________________

Log Entry : 
01/30/2014 10:52:50
Error in: http://localhost:40053/Pronto500/Empleado/EmpleadosParaComboSectorCompras/. Error Message:Me faltan parametros. Empleados_TX_PorSector esperaba 3 y se le pasaron 1
__________________________

Log Entry : 
01/30/2014 10:54:25
Error in: http://localhost:40053/Pronto500/Pedido/Edit/-1. Error Message:Me faltan parametros. Empleados_TX_PorSector esperaba 3 y se le pasaron 1
__________________________

Log Entry : 
01/30/2014 10:54:29
Error in: http://localhost:40053/Pronto500/Empleado/EmpleadosParaComboSectorCompras/. Error Message:Me faltan parametros. Empleados_TX_PorSector esperaba 3 y se le pasaron 1
__________________________

Log Entry : 
01/30/2014 10:56:14
Error in: http://localhost:40053/Pronto500/Pedido/Edit/-1. Error Message:Me faltan parametros. Empleados_TX_PorSector esperaba 3 y se le pasaron 1
__________________________

Log Entry : 
01/30/2014 10:56:17
Error in: http://localhost:40053/Pronto500/Empleado/EmpleadosParaComboSectorCompras/. Error Message:Me faltan parametros. Empleados_TX_PorSector esperaba 3 y se le pasaron 1
__________________________

Log Entry : 
01/30/2014 10:56:31
Error in: http://localhost:40053/Pronto500/Pedido/Edit/-1. Error Message:Me faltan parametros. Empleados_TX_PorSector esperaba 3 y se le pasaron 1
__________________________

Log Entry : 
01/30/2014 10:56:36
Error in: http://localhost:40053/Pronto500/Empleado/EmpleadosParaComboSectorCompras/. Error Message:Me faltan parametros. Empleados_TX_PorSector esperaba 3 y se le pasaron 1
__________________________

Log Entry : 
01/30/2014 10:58:51
Error in: http://localhost:40053/Pronto500/Pedido/Edit/-1. Error Message:Me faltan parametros. Empleados_TX_PorSector esperaba 3 y se le pasaron 1
__________________________

Log Entry : 
01/30/2014 10:58:56
Error in: http://localhost:40053/Pronto500/Empleado/EmpleadosParaComboSectorCompras/. Error Message:Me faltan parametros. Empleados_TX_PorSector esperaba 3 y se le pasaron 1
__________________________

Log Entry : 
01/30/2014 11:00:44
Error in: http://localhost:40053/Pronto500/Pedido/Edit/-1. Error Message:Me faltan parametros. Empleados_TX_PorSector esperaba 3 y se le pasaron 1
__________________________

Log Entry : 
01/30/2014 11:00:47
Error in: http://localhost:40053/Pronto500/Empleado/EmpleadosParaComboSectorCompras/. Error Message:Me faltan parametros. Empleados_TX_PorSector esperaba 3 y se le pasaron 1
__________________________

Log Entry : 
01/30/2014 11:01:40
Error in: http://localhost:40053/Pronto500/Pedido/Edit/-1. Error Message:Me faltan parametros. Empleados_TX_PorSector esperaba 3 y se le pasaron 1
__________________________

Log Entry : 
01/30/2014 11:02:53
Error in: http://localhost:40053/Pronto500/Pedido/Edit/-1. Error Message:Me faltan parametros. Empleados_TX_PorSector esperaba 3 y se le pasaron 1
__________________________

Log Entry : 
01/30/2014 11:04:06
Error in: http://localhost:40053/Pronto500/Pedido/Edit/-1. Error Message:Me faltan parametros. Empleados_TX_PorSector esperaba 3 y se le pasaron 1
__________________________

Log Entry : 
01/30/2014 11:04:46
Error in: http://localhost:40053/Pronto500/Pedido/Edit/-1. Error Message:Me faltan parametros. Empleados_TX_PorSector esperaba 3 y se le pasaron 1
__________________________

Log Entry : 
01/30/2014 11:04:48
Error in: http://localhost:40053/Pronto500/Pedido/Edit/-1. Error Message:Me faltan parametros. Empleados_TX_PorSector esperaba 3 y se le pasaron 1
__________________________

Log Entry : 
01/30/2014 11:04:57
Error in: http://localhost:40053/Pronto500/Empleado/EmpleadosParaComboSectorCompras/. Error Message:Me faltan parametros. Empleados_TX_PorSector esperaba 3 y se le pasaron 1
__________________________

Log Entry : 
01/30/2014 11:05:21
Error in: http://localhost:40053/Pronto500/Pedido/Edit/-1. Error Message:Me faltan parametros. Empleados_TX_PorSector esperaba 3 y se le pasaron 1
__________________________

Log Entry : 
01/30/2014 11:27:51
Error in: http://localhost:40053/Pronto500/Pedido/Edit/-1. Error Message:Me faltan parametros. Empleados_TX_PorSector esperaba 3 y se le pasaron 1
__________________________

Log Entry : 
01/30/2014 11:27:54
Error in: http://localhost:40053/Pronto500/Empleado/EmpleadosParaComboSectorCompras/. Error Message:Me faltan parametros. Empleados_TX_PorSector esperaba 3 y se le pasaron 1
__________________________

Log Entry : 
01/30/2014 11:28:46
Error in: http://localhost:40053/Pronto500/Pedido/Edit/-1. Error Message:Me faltan parametros. Empleados_TX_PorSector esperaba 3 y se le pasaron 1
__________________________

Log Entry : 
01/30/2014 11:28:49
Error in: http://localhost:40053/Pronto500/Empleado/EmpleadosParaComboSectorCompras/. Error Message:Me faltan parametros. Empleados_TX_PorSector esperaba 3 y se le pasaron 1
__________________________

Log Entry : 
01/30/2014 11:29:36
Error in: http://localhost:40053/Pronto500/Pedido/Edit/-1. Error Message:Me faltan parametros. Empleados_TX_PorSector esperaba 3 y se le pasaron 1
__________________________

Log Entry : 
01/30/2014 11:29:39
Error in: http://localhost:40053/Pronto500/Empleado/EmpleadosParaComboSectorCompras/. Error Message:Me faltan parametros. Empleados_TX_PorSector esperaba 3 y se le pasaron 1
__________________________

Log Entry : 
01/30/2014 11:30:04
Error in: http://localhost:40053/Pronto500/Pedido/Edit/-1. Error Message:Me faltan parametros. Empleados_TX_PorSector esperaba 3 y se le pasaron 1
__________________________

Log Entry : 
01/30/2014 11:30:07
Error in: http://localhost:40053/Pronto500/Empleado/EmpleadosParaComboSectorCompras/. Error Message:Me faltan parametros. Empleados_TX_PorSector esperaba 3 y se le pasaron 1
__________________________

Log Entry : 
01/30/2014 11:30:36
Error in: http://localhost:40053/Pronto500/Pedido/Edit/-1. Error Message:Me faltan parametros. Empleados_TX_PorSector esperaba 3 y se le pasaron 1
__________________________

Log Entry : 
01/30/2014 11:30:39
Error in: http://localhost:40053/Pronto500/Empleado/EmpleadosParaComboSectorCompras/. Error Message:Me faltan parametros. Empleados_TX_PorSector esperaba 3 y se le pasaron 1
__________________________

Log Entry : 
01/30/2014 11:31:51
Error in: http://localhost:40053/Pronto500/Pedido/Edit/-1. Error Message:Me faltan parametros. Empleados_TX_PorSector esperaba 3 y se le pasaron 1
__________________________

Log Entry : 
01/30/2014 11:31:54
Error in: http://localhost:40053/Pronto500/Empleado/EmpleadosParaComboSectorCompras/. Error Message:Me faltan parametros. Empleados_TX_PorSector esperaba 3 y se le pasaron 1
__________________________

Log Entry : 
01/30/2014 11:33:12
Error in: http://localhost:40053/Pronto500/Pedido/Edit/-1. Error Message:Me faltan parametros. Empleados_TX_PorSector esperaba 3 y se le pasaron 1
__________________________

Log Entry : 
01/30/2014 11:33:15
Error in: http://localhost:40053/Pronto500/Empleado/EmpleadosParaComboSectorCompras/. Error Message:Me faltan parametros. Empleados_TX_PorSector esperaba 3 y se le pasaron 1
__________________________

Log Entry : 
01/30/2014 11:35:36
Error in: http://localhost:40053/Pronto500/Pedido/Edit/-1. Error Message:Me faltan parametros. Empleados_TX_PorSector esperaba 3 y se le pasaron 1
__________________________

Log Entry : 
01/30/2014 11:35:39
Error in: http://localhost:40053/Pronto500/Empleado/EmpleadosParaComboSectorCompras/. Error Message:Me faltan parametros. Empleados_TX_PorSector esperaba 3 y se le pasaron 1
__________________________

Log Entry : 
01/30/2014 11:38:00
Error in: http://localhost:40053/Pronto500/Error/JSErrorHandler. Error Message:System.Net.Mail.SmtpException
Failure sending mail.
   at System.Net.Mail.SmtpClient.Send(MailMessage message)
   at ProntoFuncionesGenerales.MandaEmailSimple(String Para, String Asunto, String Cuerpo, String De, String SmtpServer, String SmtpUser, String SmtpPass, String sStringGenerarAdjunto, Int64 SmtpPort, Int32 EnableSSL, String CCO, String img)
   at ProntoMVC.Controllers.ErrorController.JSErrorHandler() in C:\Backup\BDL\ProntoMVC\ProntoMVC\Controllers\ErrorController.cs:line 167
System
__________________________

Log Entry : 
01/30/2014 11:39:53
Error in: http://localhost:40053/Pronto500/Pedido/Edit/-1. Error Message:Me faltan parametros. Empleados_TX_PorSector esperaba 3 y se le pasaron 1
__________________________

Log Entry : 
01/30/2014 11:39:59
Error in: http://localhost:40053/Pronto500/Empleado/EmpleadosParaComboSectorCompras/. Error Message:Me faltan parametros. Empleados_TX_PorSector esperaba 3 y se le pasaron 1
__________________________

Log Entry : 
01/30/2014 11:43:07
Error in: http://localhost:40053/Pronto500/Pedido/Edit/-1. Error Message:Me faltan parametros. Empleados_TX_PorSector esperaba 3 y se le pasaron 1
__________________________

Log Entry : 
01/30/2014 11:43:12
Error in: http://localhost:40053/Pronto500/Empleado/EmpleadosParaComboSectorCompras/. Error Message:Me faltan parametros. Empleados_TX_PorSector esperaba 3 y se le pasaron 1
__________________________

Log Entry : 
01/30/2014 11:45:14
Error in: http://localhost:40053/Pronto500/Pedido/Edit/-1. Error Message:Me faltan parametros. Empleados_TX_PorSector esperaba 3 y se le pasaron 1
__________________________

Log Entry : 
01/30/2014 11:45:15
Error in: http://localhost:40053/Pronto500/Empleado/EmpleadosParaComboSectorCompras/. Error Message:Me faltan parametros. Empleados_TX_PorSector esperaba 3 y se le pasaron 1
__________________________

Log Entry : 
01/30/2014 11:45:45
Error in: http://localhost:40053/Pronto500/Pedido/Edit/-1. Error Message:Me faltan parametros. Empleados_TX_PorSector esperaba 3 y se le pasaron 1
__________________________

Log Entry : 
01/30/2014 11:45:47
Error in: http://localhost:40053/Pronto500/Empleado/EmpleadosParaComboSectorCompras/. Error Message:Me faltan parametros. Empleados_TX_PorSector esperaba 3 y se le pasaron 1
__________________________

Log Entry : 
01/30/2014 11:46:17
Error in: http://localhost:40053/Pronto500/Pedido/Edit/-1. Error Message:Me faltan parametros. Empleados_TX_PorSector esperaba 3 y se le pasaron 1
__________________________

Log Entry : 
01/30/2014 11:46:19
Error in: http://localhost:40053/Pronto500/Empleado/EmpleadosParaComboSectorCompras/. Error Message:Me faltan parametros. Empleados_TX_PorSector esperaba 3 y se le pasaron 1
__________________________

Log Entry : 
01/30/2014 12:18:18
Error in: http://localhost:40053/Pronto500/Pedido/Edit/-1. Error Message:Me faltan parametros. Empleados_TX_PorSector esperaba 3 y se le pasaron 1
__________________________

Log Entry : 
01/30/2014 12:18:20
Error in: http://localhost:40053/Pronto500/Empleado/EmpleadosParaComboSectorCompras/. Error Message:Me faltan parametros. Empleados_TX_PorSector esperaba 3 y se le pasaron 1
__________________________

Log Entry : 
01/30/2014 12:24:29
Error in: http://localhost:40053/Pronto500/Pedido/Edit/-1. Error Message:Me faltan parametros. Empleados_TX_PorSector esperaba 3 y se le pasaron 1
__________________________

Log Entry : 
01/30/2014 12:24:31
Error in: http://localhost:40053/Pronto500/Empleado/EmpleadosParaComboSectorCompras/. Error Message:Me faltan parametros. Empleados_TX_PorSector esperaba 3 y se le pasaron 1
__________________________

Log Entry : 
01/30/2014 12:24:53
Error in: http://localhost:40053/Pronto500/Pedido/Edit/-1. Error Message:Me faltan parametros. Empleados_TX_PorSector esperaba 3 y se le pasaron 1
__________________________

Log Entry : 
01/30/2014 12:24:56
Error in: http://localhost:40053/Pronto500/Empleado/EmpleadosParaComboSectorCompras/. Error Message:Me faltan parametros. Empleados_TX_PorSector esperaba 3 y se le pasaron 1
__________________________

Log Entry : 
01/30/2014 12:25:40
Error in: http://localhost:40053/Pronto500/Pedido/Edit/-1. Error Message:Me faltan parametros. Empleados_TX_PorSector esperaba 3 y se le pasaron 1
__________________________

Log Entry : 
01/30/2014 12:25:43
Error in: http://localhost:40053/Pronto500/Empleado/EmpleadosParaComboSectorCompras/. Error Message:Me faltan parametros. Empleados_TX_PorSector esperaba 3 y se le pasaron 1
__________________________

Log Entry : 
01/30/2014 12:26:48
Error in: http://localhost:40053/Pronto500/Pedido/Edit/-1. Error Message:Me faltan parametros. Empleados_TX_PorSector esperaba 3 y se le pasaron 1
__________________________

Log Entry : 
01/30/2014 12:26:50
Error in: http://localhost:40053/Pronto500/Empleado/EmpleadosParaComboSectorCompras/. Error Message:Me faltan parametros. Empleados_TX_PorSector esperaba 3 y se le pasaron 1
__________________________

Log Entry : 
01/30/2014 12:27:28
Error in: http://localhost:40053/Pronto500/Pedido/Edit/-1. Error Message:Me faltan parametros. Empleados_TX_PorSector esperaba 3 y se le pasaron 1
__________________________

Log Entry : 
01/30/2014 12:27:30
Error in: http://localhost:40053/Pronto500/Empleado/EmpleadosParaComboSectorCompras/. Error Message:Me faltan parametros. Empleados_TX_PorSector esperaba 3 y se le pasaron 1
__________________________

Log Entry : 
01/30/2014 12:27:47
Error in: http://localhost:40053/Pronto500/Pedido/Edit/-1. Error Message:Me faltan parametros. Empleados_TX_PorSector esperaba 3 y se le pasaron 1
__________________________

Log Entry : 
01/30/2014 12:27:50
Error in: http://localhost:40053/Pronto500/Empleado/EmpleadosParaComboSectorCompras/. Error Message:Me faltan parametros. Empleados_TX_PorSector esperaba 3 y se le pasaron 1
__________________________

Log Entry : 
01/30/2014 12:28:11
Error in: http://localhost:40053/Pronto500/Pedido/Edit/-1. Error Message:Me faltan parametros. Empleados_TX_PorSector esperaba 3 y se le pasaron 1
__________________________

Log Entry : 
01/30/2014 12:28:12
Error in: http://localhost:40053/Pronto500/Empleado/EmpleadosParaComboSectorCompras/. Error Message:Me faltan parametros. Empleados_TX_PorSector esperaba 3 y se le pasaron 1
__________________________

Log Entry : 
01/30/2014 12:28:47
Error in: http://localhost:40053/Pronto500/Pedido/Edit/-1. Error Message:Me faltan parametros. Empleados_TX_PorSector esperaba 3 y se le pasaron 1
__________________________

Log Entry : 
01/30/2014 12:28:49
Error in: http://localhost:40053/Pronto500/Empleado/EmpleadosParaComboSectorCompras/. Error Message:Me faltan parametros. Empleados_TX_PorSector esperaba 3 y se le pasaron 1
__________________________

Log Entry : 
01/30/2014 12:29:46
Error in: http://localhost:40053/Pronto500/Pedido/Edit/-1. Error Message:Me faltan parametros. Empleados_TX_PorSector esperaba 3 y se le pasaron 1
__________________________

Log Entry : 
01/30/2014 12:29:48
Error in: http://localhost:40053/Pronto500/Empleado/EmpleadosParaComboSectorCompras/. Error Message:Me faltan parametros. Empleados_TX_PorSector esperaba 3 y se le pasaron 1
__________________________

Log Entry : 
01/30/2014 12:31:13
Error in: http://localhost:40053/Pronto500/Pedido/Edit/-1. Error Message:Me faltan parametros. Empleados_TX_PorSector esperaba 3 y se le pasaron 1
__________________________

Log Entry : 
01/30/2014 12:31:15
Error in: http://localhost:40053/Pronto500/Empleado/EmpleadosParaComboSectorCompras/. Error Message:Me faltan parametros. Empleados_TX_PorSector esperaba 3 y se le pasaron 1
__________________________

Log Entry : 
01/30/2014 12:32:04
Error in: http://localhost:40053/Pronto500/Pedido/Edit/-1. Error Message:Me faltan parametros. Empleados_TX_PorSector esperaba 3 y se le pasaron 1
__________________________

Log Entry : 
01/30/2014 12:32:06
Error in: http://localhost:40053/Pronto500/Empleado/EmpleadosParaComboSectorCompras/. Error Message:Me faltan parametros. Empleados_TX_PorSector esperaba 3 y se le pasaron 1
__________________________

Log Entry : 
01/30/2014 13:02:19
Error in: http://localhost:40053/Pronto500/Pedido/Edit/-1. Error Message:Me faltan parametros. Empleados_TX_PorSector esperaba 3 y se le pasaron 1
__________________________

Log Entry : 
01/30/2014 13:02:21
Error in: http://localhost:40053/Pronto500/Empleado/EmpleadosParaComboSectorCompras/. Error Message:Me faltan parametros. Empleados_TX_PorSector esperaba 3 y se le pasaron 1
__________________________

Log Entry : 
01/30/2014 13:04:42
Error in: http://localhost:40053/Pronto500/Pedido/Edit/-1. Error Message:Me faltan parametros. Empleados_TX_PorSector esperaba 3 y se le pasaron 1
__________________________

Log Entry : 
01/30/2014 13:04:44
Error in: http://localhost:40053/Pronto500/Empleado/EmpleadosParaComboSectorCompras/. Error Message:Me faltan parametros. Empleados_TX_PorSector esperaba 3 y se le pasaron 1
__________________________

Log Entry : 
01/30/2014 13:07:06
Error in: http://localhost:40053/Pronto500/Pedido/Edit/-1. Error Message:Me faltan parametros. Empleados_TX_PorSector esperaba 3 y se le pasaron 1
__________________________

Log Entry : 
01/30/2014 13:07:09
Error in: http://localhost:40053/Pronto500/Empleado/EmpleadosParaComboSectorCompras/. Error Message:Me faltan parametros. Empleados_TX_PorSector esperaba 3 y se le pasaron 1
__________________________

Log Entry : 
01/30/2014 13:08:26
Error in: http://localhost:40053/Pronto500/Pedido/BatchUpdate. Error Message:System.NullReferenceException
Object reference not set to an instance of an object.
   at ProntoMVC.Controllers.PedidoController.Validar(Pedido o, String& sErrorMsg, String& sWarningMsg) in C:\Backup\BDL\ProntoMVC\ProntoMVC\Controllers\PedidoController.cs:line 1435
ProntoMVC
__________________________

Log Entry : 
01/30/2014 13:08:26
Error in: http://localhost:40053/Pronto500/Pedido/BatchUpdate. Error Message:System.NullReferenceException
Object reference not set to an instance of an object.
   at ProntoMVC.Controllers.PedidoController.Validar(Pedido o, String& sErrorMsg, String& sWarningMsg) in C:\Backup\BDL\ProntoMVC\ProntoMVC\Controllers\PedidoController.cs:line 1435
ProntoMVC
__________________________

Log Entry : 
01/30/2014 13:08:26
Error in: http://localhost:40053/Pronto500/Pedido/BatchUpdate. Error Message:System.NullReferenceException
Object reference not set to an instance of an object.
   at ProntoMVC.Controllers.PedidoController.Validar(Pedido o, String& sErrorMsg, String& sWarningMsg) in C:\Backup\BDL\ProntoMVC\ProntoMVC\Controllers\PedidoController.cs:line 1435
ProntoMVC
__________________________

Log Entry : 
01/30/2014 13:08:57
Error in: http://localhost:40053/Pronto500/Pedido/BatchUpdate. Error Message:System.NullReferenceException
Object reference not set to an instance of an object.
   at ProntoMVC.Controllers.PedidoController.Validar(Pedido o, String& sErrorMsg, String& sWarningMsg) in C:\Backup\BDL\ProntoMVC\ProntoMVC\Controllers\PedidoController.cs:line 1435
ProntoMVC
__________________________

Log Entry : 
01/30/2014 13:08:57
Error in: http://localhost:40053/Pronto500/Pedido/BatchUpdate. Error Message:System.NullReferenceException
Object reference not set to an instance of an object.
   at ProntoMVC.Controllers.PedidoController.Validar(Pedido o, String& sErrorMsg, String& sWarningMsg) in C:\Backup\BDL\ProntoMVC\ProntoMVC\Controllers\PedidoController.cs:line 1435
ProntoMVC
__________________________

Log Entry : 
01/30/2014 13:08:57
Error in: http://localhost:40053/Pronto500/Pedido/BatchUpdate. Error Message:System.NullReferenceException
Object reference not set to an instance of an object.
   at ProntoMVC.Controllers.PedidoController.Validar(Pedido o, String& sErrorMsg, String& sWarningMsg) in C:\Backup\BDL\ProntoMVC\ProntoMVC\Controllers\PedidoController.cs:line 1435
ProntoMVC
__________________________

Log Entry : 
01/30/2014 13:11:16
Error in: http://localhost:40053/Pronto500/Pedido/BatchUpdate. Error Message:System.NullReferenceException
Object reference not set to an instance of an object.
   at ProntoMVC.Controllers.PedidoController.Validar(Pedido o, String& sErrorMsg, String& sWarningMsg) in C:\Backup\BDL\ProntoMVC\ProntoMVC\Controllers\PedidoController.cs:line 1435
ProntoMVC
__________________________

Log Entry : 
01/30/2014 13:11:16
Error in: http://localhost:40053/Pronto500/Pedido/BatchUpdate. Error Message:System.NullReferenceException
Object reference not set to an instance of an object.
   at ProntoMVC.Controllers.PedidoController.Validar(Pedido o, String& sErrorMsg, String& sWarningMsg) in C:\Backup\BDL\ProntoMVC\ProntoMVC\Controllers\PedidoController.cs:line 1435
ProntoMVC
__________________________

Log Entry : 
01/30/2014 13:11:16
Error in: http://localhost:40053/Pronto500/Pedido/BatchUpdate. Error Message:System.NullReferenceException
Object reference not set to an instance of an object.
   at ProntoMVC.Controllers.PedidoController.Validar(Pedido o, String& sErrorMsg, String& sWarningMsg) in C:\Backup\BDL\ProntoMVC\ProntoMVC\Controllers\PedidoController.cs:line 1435
ProntoMVC
__________________________

Log Entry : 
01/30/2014 13:17:44
Error in: http://localhost:40053/Pronto500/Pedido/Edit/18265. Error Message:Me faltan parametros. Empleados_TX_PorSector esperaba 3 y se le pasaron 1
__________________________

Log Entry : 
01/30/2014 13:17:45
Error in: http://localhost:40053/Pronto500/Empleado/EmpleadosParaComboSectorCompras/. Error Message:Me faltan parametros. Empleados_TX_PorSector esperaba 3 y se le pasaron 1
__________________________

Log Entry : 
01/30/2014 13:18:00
Error in: http://localhost:40053/Pronto500/Pedido/Edit/-1. Error Message:Me faltan parametros. Empleados_TX_PorSector esperaba 3 y se le pasaron 1
__________________________

Log Entry : 
01/30/2014 13:18:03
Error in: http://localhost:40053/Pronto500/Empleado/EmpleadosParaComboSectorCompras/. Error Message:Me faltan parametros. Empleados_TX_PorSector esperaba 3 y se le pasaron 1
__________________________

Log Entry : 
01/30/2014 13:20:35
Error in: http://localhost:40053/Pronto500/Pedido/Edit/-1. Error Message:Me faltan parametros. Empleados_TX_PorSector esperaba 3 y se le pasaron 1
__________________________

Log Entry : 
01/30/2014 13:20:37
Error in: http://localhost:40053/Pronto500/Empleado/EmpleadosParaComboSectorCompras/. Error Message:Me faltan parametros. Empleados_TX_PorSector esperaba 3 y se le pasaron 1
__________________________

Log Entry : 
01/30/2014 13:44:38
Error in: http://localhost:40053/Pronto500/Pedido/Edit/-1. Error Message:Me faltan parametros. Empleados_TX_PorSector esperaba 3 y se le pasaron 1
__________________________

Log Entry : 
01/30/2014 13:44:40
Error in: http://localhost:40053/Pronto500/Empleado/EmpleadosParaComboSectorCompras/. Error Message:Me faltan parametros. Empleados_TX_PorSector esperaba 3 y se le pasaron 1
__________________________

Log Entry : 
01/30/2014 13:47:44
Error in: http://localhost:40053/Pronto500/Pedido/Edit/18261. Error Message:Me faltan parametros. Empleados_TX_PorSector esperaba 3 y se le pasaron 1
__________________________

Log Entry : 
01/30/2014 13:47:46
Error in: http://localhost:40053/Pronto500/Empleado/EmpleadosParaComboSectorCompras/. Error Message:Me faltan parametros. Empleados_TX_PorSector esperaba 3 y se le pasaron 1
__________________________

Log Entry : 
01/30/2014 13:47:51
Error in: http://localhost:40053/Pronto500/Pedido/Edit/18258. Error Message:Me faltan parametros. Empleados_TX_PorSector esperaba 3 y se le pasaron 1
__________________________

Log Entry : 
01/30/2014 13:47:53
Error in: http://localhost:40053/Pronto500/Empleado/EmpleadosParaComboSectorCompras/. Error Message:Me faltan parametros. Empleados_TX_PorSector esperaba 3 y se le pasaron 1
__________________________

Log Entry : 
01/30/2014 13:47:58
Error in: http://localhost:40053/Pronto500/Pedido/Edit/18259. Error Message:Me faltan parametros. Empleados_TX_PorSector esperaba 3 y se le pasaron 1
__________________________

Log Entry : 
01/30/2014 13:48:00
Error in: http://localhost:40053/Pronto500/Empleado/EmpleadosParaComboSectorCompras/. Error Message:Me faltan parametros. Empleados_TX_PorSector esperaba 3 y se le pasaron 1
__________________________

Log Entry : 
01/30/2014 13:48:16
Error in: http://localhost:40053/Pronto500/Pedido/BatchUpdate. Error Message:System.Data.SqlClient.SqlException
String or binary data would be truncated.
The statement has been terminated.
   at System.Data.SqlClient.SqlConnection.OnError(SqlException exception, Boolean breakConnection, Action`1 wrapCloseInAction)
   at System.Data.SqlClient.SqlInternalConnection.OnError(SqlException exception, Boolean breakConnection, Action`1 wrapCloseInAction)
   at System.Data.SqlClient.TdsParser.ThrowExceptionAndWarning(TdsParserStateObject stateObj, Boolean callerHasConnectionLock, Boolean asyncClose)
   at System.Data.SqlClient.TdsParser.TryRun(RunBehavior runBehavior, SqlCommand cmdHandler, SqlDataReader dataStream, BulkCopySimpleResultSet bulkCopyHandler, TdsParserStateObject stateObj, Boolean& dataReady)
   at System.Data.SqlClient.SqlDataReader.TrySetMetaData(_SqlMetaDataSet metaData, Boolean moreInfo)
   at System.Data.SqlClient.TdsParser.TryRun(RunBehavior runBehavior, SqlCommand cmdHandler, SqlDataReader dataStream, BulkCopySimpleResultSet bulkCopyHandler, TdsParserStateObject stateObj, Boolean& dataReady)
   at System.Data.SqlClient.SqlDataReader.TryConsumeMetaData()
   at System.Data.SqlClient.SqlDataReader.get_MetaData()
   at System.Data.SqlClient.SqlCommand.FinishExecuteReader(SqlDataReader ds, RunBehavior runBehavior, String resetOptionsString)
   at System.Data.SqlClient.SqlCommand.RunExecuteReaderTds(CommandBehavior cmdBehavior, RunBehavior runBehavior, Boolean returnStream, Boolean async, Int32 timeout, Task& task, Boolean asyncWrite, SqlDataReader ds)
   at System.Data.SqlClient.SqlCommand.RunExecuteReader(CommandBehavior cmdBehavior, RunBehavior runBehavior, Boolean returnStream, String method, TaskCompletionSource`1 completion, Int32 timeout, Task& task, Boolean asyncWrite)
   at System.Data.SqlClient.SqlCommand.RunExecuteReader(CommandBehavior cmdBehavior, RunBehavior runBehavior, Boolean returnStream, String method)
   at System.Data.SqlClient.SqlCommand.ExecuteReader(CommandBehavior behavior, String method)
   at System.Data.SqlClient.SqlCommand.ExecuteReader()
   at ProntoMVC.Models.TablasDAL.FillTreeEntity(SqlCommand sqlCommand) in C:\Backup\BDL\ProntoMVC\ProntoMVC\Models\ModeloDAL.cs:line 265
   at ProntoMVC.Models.TablasDAL.ArbolRegenerar(String nombrebase) in C:\Backup\BDL\ProntoMVC\ProntoMVC\Models\ModeloDAL.cs:line 257
   at ProntoMVC.Controllers.PedidoController.BatchUpdate(Pedido Pedido) in C:\Backup\BDL\ProntoMVC\ProntoMVC\Controllers\PedidoController.cs:line 908
.Net SqlClient Data Provider
__________________________

Log Entry : 
01/30/2014 13:48:16
Error in: http://localhost:40053/Pronto500/Pedido/Edit/18259. Error Message:Me faltan parametros. Empleados_TX_PorSector esperaba 3 y se le pasaron 1
__________________________

Log Entry : 
01/30/2014 13:48:19
Error in: http://localhost:40053/Pronto500/Empleado/EmpleadosParaComboSectorCompras/. Error Message:Me faltan parametros. Empleados_TX_PorSector esperaba 3 y se le pasaron 1
__________________________

Log Entry : 
01/30/2014 13:50:24
Error in: http://localhost:40053/Pronto500/Pedido/Edit/18259. Error Message:Me faltan parametros. Empleados_TX_PorSector esperaba 3 y se le pasaron 1
__________________________

Log Entry : 
01/30/2014 13:50:27
Error in: http://localhost:40053/Pronto500/Empleado/EmpleadosParaComboSectorCompras/. Error Message:Me faltan parametros. Empleados_TX_PorSector esperaba 3 y se le pasaron 1
__________________________

Log Entry : 
01/30/2014 14:09:46
Error in: http://localhost:40053/Pronto500/Pedido/Edit/18265. Error Message:Me faltan parametros. Empleados_TX_PorSector esperaba 3 y se le pasaron 1
__________________________

Log Entry : 
01/30/2014 14:09:49
Error in: http://localhost:40053/Pronto500/Empleado/EmpleadosParaComboSectorCompras/. Error Message:Me faltan parametros. Empleados_TX_PorSector esperaba 3 y se le pasaron 1
__________________________

Log Entry : 
01/30/2014 14:09:55
Error in: http://localhost:40053/Pronto500/Pedido/Edit/18259. Error Message:Me faltan parametros. Empleados_TX_PorSector esperaba 3 y se le pasaron 1
__________________________

Log Entry : 
01/30/2014 14:09:57
Error in: http://localhost:40053/Pronto500/Empleado/EmpleadosParaComboSectorCompras/. Error Message:Me faltan parametros. Empleados_TX_PorSector esperaba 3 y se le pasaron 1
__________________________

Log Entry : 
01/30/2014 14:11:09
Error in: http://localhost:40053/Pronto500/Pedido/Edit/18259. Error Message:Me faltan parametros. Empleados_TX_PorSector esperaba 3 y se le pasaron 1
__________________________

Log Entry : 
01/30/2014 14:11:12
Error in: http://localhost:40053/Pronto500/Empleado/EmpleadosParaComboSectorCompras/. Error Message:Me faltan parametros. Empleados_TX_PorSector esperaba 3 y se le pasaron 1
__________________________

Log Entry : 
01/30/2014 14:12:55
Error in: http://localhost:40053/Pronto500/Pedido/Edit/18259. Error Message:Me faltan parametros. Empleados_TX_PorSector esperaba 3 y se le pasaron 1
__________________________

Log Entry : 
01/30/2014 14:13:01
Error in: http://localhost:40053/Pronto500/Empleado/EmpleadosParaComboSectorCompras/. Error Message:Me faltan parametros. Empleados_TX_PorSector esperaba 3 y se le pasaron 1
__________________________

Log Entry : 
01/30/2014 14:13:08
Error in: http://localhost:40053/Pronto500/Pedido/Edit/18259. Error Message:Me faltan parametros. Empleados_TX_PorSector esperaba 3 y se le pasaron 1
__________________________

Log Entry : 
01/30/2014 14:13:10
Error in: http://localhost:40053/Pronto500/Empleado/EmpleadosParaComboSectorCompras/. Error Message:Me faltan parametros. Empleados_TX_PorSector esperaba 3 y se le pasaron 1
__________________________

Log Entry : 
01/30/2014 14:13:34
Error in: http://localhost:40053/Pronto500/Pedido/AnularFirmas. Error Message:System.Data.SqlClient.SqlException
String or binary data would be truncated.
The statement has been terminated.
   at System.Data.SqlClient.SqlConnection.OnError(SqlException exception, Boolean breakConnection, Action`1 wrapCloseInAction)
   at System.Data.SqlClient.SqlInternalConnection.OnError(SqlException exception, Boolean breakConnection, Action`1 wrapCloseInAction)
   at System.Data.SqlClient.TdsParser.ThrowExceptionAndWarning(TdsParserStateObject stateObj, Boolean callerHasConnectionLock, Boolean asyncClose)
   at System.Data.SqlClient.TdsParser.TryRun(RunBehavior runBehavior, SqlCommand cmdHandler, SqlDataReader dataStream, BulkCopySimpleResultSet bulkCopyHandler, TdsParserStateObject stateObj, Boolean& dataReady)
   at System.Data.SqlClient.SqlDataReader.TrySetMetaData(_SqlMetaDataSet metaData, Boolean moreInfo)
   at System.Data.SqlClient.TdsParser.TryRun(RunBehavior runBehavior, SqlCommand cmdHandler, SqlDataReader dataStream, BulkCopySimpleResultSet bulkCopyHandler, TdsParserStateObject stateObj, Boolean& dataReady)
   at System.Data.SqlClient.SqlDataReader.TryConsumeMetaData()
   at System.Data.SqlClient.SqlDataReader.get_MetaData()
   at System.Data.SqlClient.SqlCommand.FinishExecuteReader(SqlDataReader ds, RunBehavior runBehavior, String resetOptionsString)
   at System.Data.SqlClient.SqlCommand.RunExecuteReaderTds(CommandBehavior cmdBehavior, RunBehavior runBehavior, Boolean returnStream, Boolean async, Int32 timeout, Task& task, Boolean asyncWrite, SqlDataReader ds)
   at System.Data.SqlClient.SqlCommand.RunExecuteReader(CommandBehavior cmdBehavior, RunBehavior runBehavior, Boolean returnStream, String method, TaskCompletionSource`1 completion, Int32 timeout, Task& task, Boolean asyncWrite)
   at System.Data.SqlClient.SqlCommand.RunExecuteReader(CommandBehavior cmdBehavior, RunBehavior runBehavior, Boolean returnStream, String method)
   at System.Data.SqlClient.SqlCommand.ExecuteReader(CommandBehavior behavior, String method)
   at System.Data.SqlClient.SqlCommand.ExecuteReader()
   at ProntoMVC.Models.TablasDAL.FillTreeEntity(SqlCommand sqlCommand) in C:\Backup\BDL\ProntoMVC\ProntoMVC\Models\ModeloDAL.cs:line 265
   at ProntoMVC.Models.TablasDAL.ArbolRegenerar(String nombrebase) in C:\Backup\BDL\ProntoMVC\ProntoMVC\Models\ModeloDAL.cs:line 257
   at ProntoMVC.Controllers.PedidoController.BatchUpdate(Pedido Pedido) in C:\Backup\BDL\ProntoMVC\ProntoMVC\Controllers\PedidoController.cs:line 908
.Net SqlClient Data Provider
__________________________

Log Entry : 
01/30/2014 14:13:35
Error in: http://localhost:40053/Pronto500/Pedido/Edit/18259. Error Message:Me faltan parametros. Empleados_TX_PorSector esperaba 3 y se le pasaron 1
__________________________

Log Entry : 
01/30/2014 14:13:37
Error in: http://localhost:40053/Pronto500/Empleado/EmpleadosParaComboSectorCompras/. Error Message:Me faltan parametros. Empleados_TX_PorSector esperaba 3 y se le pasaron 1
__________________________

Log Entry : 
01/30/2014 14:13:54
Error in: http://localhost:40053/Pronto500/Pedido/Edit/18264. Error Message:Me faltan parametros. Empleados_TX_PorSector esperaba 3 y se le pasaron 1
__________________________

Log Entry : 
01/30/2014 14:13:56
Error in: http://localhost:40053/Pronto500/Empleado/EmpleadosParaComboSectorCompras/. Error Message:Me faltan parametros. Empleados_TX_PorSector esperaba 3 y se le pasaron 1
__________________________

Log Entry : 
01/30/2014 14:14:50
Error in: http://localhost:40053/Pronto500/Pedido/Edit/18265. Error Message:Me faltan parametros. Empleados_TX_PorSector esperaba 3 y se le pasaron 1
__________________________

Log Entry : 
01/30/2014 14:14:51
Error in: http://localhost:40053/Pronto500/Empleado/EmpleadosParaComboSectorCompras/. Error Message:Me faltan parametros. Empleados_TX_PorSector esperaba 3 y se le pasaron 1
__________________________

Log Entry : 
01/30/2014 14:34:42
Error in: http://localhost:40053/Pronto500/Pedido/Edit/18265. Error Message:Me faltan parametros. Empleados_TX_PorSector esperaba 3 y se le pasaron 1
__________________________

Log Entry : 
01/30/2014 14:34:45
Error in: http://localhost:40053/Pronto500/Empleado/EmpleadosParaComboSectorCompras/. Error Message:Me faltan parametros. Empleados_TX_PorSector esperaba 3 y se le pasaron 1
__________________________

Log Entry : 
01/30/2014 14:35:03
Error in: http://localhost:40053/Pronto500/Pedido/Edit/18265. Error Message:Me faltan parametros. Empleados_TX_PorSector esperaba 3 y se le pasaron 1
__________________________

Log Entry : 
01/30/2014 14:35:05
Error in: http://localhost:40053/Pronto500/Empleado/EmpleadosParaComboSectorCompras/. Error Message:Me faltan parametros. Empleados_TX_PorSector esperaba 3 y se le pasaron 1
__________________________

Log Entry : 
01/30/2014 14:43:12
Error in: http://localhost:40053/Pronto500/Pedido/Edit/-1. Error Message:Me faltan parametros. Empleados_TX_PorSector esperaba 3 y se le pasaron 1
__________________________

Log Entry : 
01/30/2014 14:43:14
Error in: http://localhost:40053/Pronto500/Empleado/EmpleadosParaComboSectorCompras/. Error Message:Me faltan parametros. Empleados_TX_PorSector esperaba 3 y se le pasaron 1
__________________________

Log Entry : 
01/30/2014 14:44:29
Error in: http://localhost:40053/Pronto500/Pedido/Edit/-1. Error Message:Me faltan parametros. Empleados_TX_PorSector esperaba 3 y se le pasaron 1
__________________________

Log Entry : 
01/30/2014 14:44:32
Error in: http://localhost:40053/Pronto500/Empleado/EmpleadosParaComboSectorCompras/. Error Message:Me faltan parametros. Empleados_TX_PorSector esperaba 3 y se le pasaron 1
__________________________

Log Entry : 
01/30/2014 14:55:49
Error in: http://localhost:40053/Pronto500/Pedido/Edit/-1. Error Message:Me faltan parametros. Empleados_TX_PorSector esperaba 3 y se le pasaron 1
__________________________

Log Entry : 
01/30/2014 14:55:54
Error in: http://localhost:40053/Pronto500/Empleado/EmpleadosParaComboSectorCompras/. Error Message:Me faltan parametros. Empleados_TX_PorSector esperaba 3 y se le pasaron 1
__________________________

Log Entry : 
01/30/2014 14:56:37
Error in: http://localhost:40053/Pronto500/Pedido/Edit/-1. Error Message:Me faltan parametros. Empleados_TX_PorSector esperaba 3 y se le pasaron 1
__________________________

Log Entry : 
01/30/2014 14:56:39
Error in: http://localhost:40053/Pronto500/Empleado/EmpleadosParaComboSectorCompras/. Error Message:Me faltan parametros. Empleados_TX_PorSector esperaba 3 y se le pasaron 1
__________________________

Log Entry : 
01/30/2014 15:25:31
Error in: http://localhost:40053/Pronto500/Pedido/Edit/-1. Error Message:Me faltan parametros. Empleados_TX_PorSector esperaba 3 y se le pasaron 1
__________________________

Log Entry : 
01/30/2014 15:25:33
Error in: http://localhost:40053/Pronto500/Empleado/EmpleadosParaComboSectorCompras/. Error Message:Me faltan parametros. Empleados_TX_PorSector esperaba 3 y se le pasaron 1
__________________________

Log Entry : 
01/30/2014 15:44:39
Error in: http://localhost:40053/Pronto500/Pedido/Edit/-1. Error Message:Me faltan parametros. Empleados_TX_PorSector esperaba 3 y se le pasaron 1
__________________________

Log Entry : 
01/30/2014 15:44:42
Error in: http://localhost:40053/Pronto500/Empleado/EmpleadosParaComboSectorCompras/. Error Message:Me faltan parametros. Empleados_TX_PorSector esperaba 3 y se le pasaron 1
__________________________

Log Entry : 
01/30/2014 18:16:53
Error in: http://localhost:40053/Pronto500/Requerimiento/BatchUpdate. Error Message:System.Data.SqlClient.SqlException
String or binary data would be truncated.
The statement has been terminated.
   at System.Data.SqlClient.SqlConnection.OnError(SqlException exception, Boolean breakConnection, Action`1 wrapCloseInAction)
   at System.Data.SqlClient.SqlInternalConnection.OnError(SqlException exception, Boolean breakConnection, Action`1 wrapCloseInAction)
   at System.Data.SqlClient.TdsParser.ThrowExceptionAndWarning(TdsParserStateObject stateObj, Boolean callerHasConnectionLock, Boolean asyncClose)
   at System.Data.SqlClient.TdsParser.TryRun(RunBehavior runBehavior, SqlCommand cmdHandler, SqlDataReader dataStream, BulkCopySimpleResultSet bulkCopyHandler, TdsParserStateObject stateObj, Boolean& dataReady)
   at System.Data.SqlClient.SqlDataReader.TrySetMetaData(_SqlMetaDataSet metaData, Boolean moreInfo)
   at System.Data.SqlClient.TdsParser.TryRun(RunBehavior runBehavior, SqlCommand cmdHandler, SqlDataReader dataStream, BulkCopySimpleResultSet bulkCopyHandler, TdsParserStateObject stateObj, Boolean& dataReady)
   at System.Data.SqlClient.SqlDataReader.TryConsumeMetaData()
   at System.Data.SqlClient.SqlDataReader.get_MetaData()
   at System.Data.SqlClient.SqlCommand.FinishExecuteReader(SqlDataReader ds, RunBehavior runBehavior, String resetOptionsString)
   at System.Data.SqlClient.SqlCommand.RunExecuteReaderTds(CommandBehavior cmdBehavior, RunBehavior runBehavior, Boolean returnStream, Boolean async, Int32 timeout, Task& task, Boolean asyncWrite, SqlDataReader ds)
   at System.Data.SqlClient.SqlCommand.RunExecuteReader(CommandBehavior cmdBehavior, RunBehavior runBehavior, Boolean returnStream, String method, TaskCompletionSource`1 completion, Int32 timeout, Task& task, Boolean asyncWrite)
   at System.Data.SqlClient.SqlCommand.RunExecuteReader(CommandBehavior cmdBehavior, RunBehavior runBehavior, Boolean returnStream, String method)
   at System.Data.SqlClient.SqlCommand.ExecuteReader(CommandBehavior behavior, String method)
   at System.Data.SqlClient.SqlCommand.ExecuteReader()
   at ProntoMVC.Models.TablasDAL.FillTreeEntity(SqlCommand sqlCommand) in C:\Backup\BDL\ProntoMVC\ProntoMVC\Models\ModeloDAL.cs:line 265
   at ProntoMVC.Models.TablasDAL.ArbolRegenerar(String nombrebase) in C:\Backup\BDL\ProntoMVC\ProntoMVC\Models\ModeloDAL.cs:line 257
   at ProntoMVC.Controllers.RequerimientoController.BatchUpdate(Requerimiento requerimiento) in C:\Backup\BDL\ProntoMVC\ProntoMVC\Controllers\RequerimientoController.cs:line 407
.Net SqlClient Data Provider
__________________________

Log Entry : 
01/30/2014 18:17:04
Error in: http://localhost:40053/Pronto500/Requerimiento/BatchUpdate. Error Message:System.Data.SqlClient.SqlException
String or binary data would be truncated.
The statement has been terminated.
   at System.Data.SqlClient.SqlConnection.OnError(SqlException exception, Boolean breakConnection, Action`1 wrapCloseInAction)
   at System.Data.SqlClient.SqlInternalConnection.OnError(SqlException exception, Boolean breakConnection, Action`1 wrapCloseInAction)
   at System.Data.SqlClient.TdsParser.ThrowExceptionAndWarning(TdsParserStateObject stateObj, Boolean callerHasConnectionLock, Boolean asyncClose)
   at System.Data.SqlClient.TdsParser.TryRun(RunBehavior runBehavior, SqlCommand cmdHandler, SqlDataReader dataStream, BulkCopySimpleResultSet bulkCopyHandler, TdsParserStateObject stateObj, Boolean& dataReady)
   at System.Data.SqlClient.SqlDataReader.TrySetMetaData(_SqlMetaDataSet metaData, Boolean moreInfo)
   at System.Data.SqlClient.TdsParser.TryRun(RunBehavior runBehavior, SqlCommand cmdHandler, SqlDataReader dataStream, BulkCopySimpleResultSet bulkCopyHandler, TdsParserStateObject stateObj, Boolean& dataReady)
   at System.Data.SqlClient.SqlDataReader.TryConsumeMetaData()
   at System.Data.SqlClient.SqlDataReader.get_MetaData()
   at System.Data.SqlClient.SqlCommand.FinishExecuteReader(SqlDataReader ds, RunBehavior runBehavior, String resetOptionsString)
   at System.Data.SqlClient.SqlCommand.RunExecuteReaderTds(CommandBehavior cmdBehavior, RunBehavior runBehavior, Boolean returnStream, Boolean async, Int32 timeout, Task& task, Boolean asyncWrite, SqlDataReader ds)
   at System.Data.SqlClient.SqlCommand.RunExecuteReader(CommandBehavior cmdBehavior, RunBehavior runBehavior, Boolean returnStream, String method, TaskCompletionSource`1 completion, Int32 timeout, Task& task, Boolean asyncWrite)
   at System.Data.SqlClient.SqlCommand.RunExecuteReader(CommandBehavior cmdBehavior, RunBehavior runBehavior, Boolean returnStream, String method)
   at System.Data.SqlClient.SqlCommand.ExecuteReader(CommandBehavior behavior, String method)
   at System.Data.SqlClient.SqlCommand.ExecuteReader()
   at ProntoMVC.Models.TablasDAL.FillTreeEntity(SqlCommand sqlCommand) in C:\Backup\BDL\ProntoMVC\ProntoMVC\Models\ModeloDAL.cs:line 265
   at ProntoMVC.Models.TablasDAL.ArbolRegenerar(String nombrebase) in C:\Backup\BDL\ProntoMVC\ProntoMVC\Models\ModeloDAL.cs:line 257
   at ProntoMVC.Controllers.RequerimientoController.BatchUpdate(Requerimiento requerimiento) in C:\Backup\BDL\ProntoMVC\ProntoMVC\Controllers\RequerimientoController.cs:line 407
.Net SqlClient Data Provider
__________________________
